0	0
0.000595238	9.93049e-05
0.00119048	0.000198807
0.00178571	0.000298507
0.00238095	0.000398406
0.00297619	0.000498504
0.00357143	0.000598802
0.00416667	0.000699301
0.0047619	0.0008
0.00535714	0.000900901
0.00595238	0.001002
0.00654762	0.00110331
0.00714286	0.00120482
0.0077381	0.00130653
0.00833333	0.00140845
0.00892857	0.00151057
0.00952381	0.0016129
0.010119	0.00171544
0.0107143	0.00181818
0.0113095	0.00192113
0.0119048	0.00202429
0.0125	0.00212766
0.0130952	0.00223124
0.0136905	0.00233503
0.0142857	0.00243902
0.014881	0.00254323
0.0154762	0.00264766
0.0160714	0.00275229
0.0166667	0.00285714
0.0172619	0.00296221
0.0178571	0.00306748
0.0184524	0.00317298
0.0190476	0.00327869
0.0196429	0.00338462
0.0202381	0.00349076
0.0208333	0.00359712
0.0214286	0.0037037
0.0220238	0.0038105
0.022619	0.00391753
0.0232143	0.00402477
0.0238095	0.00413223
0.0244048	0.00423992
0.025	0.00434783
0.0255952	0.00445596
0.0261905	0.00456432
0.0267857	0.0046729
0.027381	0.0047817
0.0279762	0.00489074
0.0285714	0.005
0.0291667	0.00510949
0.0297619	0.00521921
0.0303571	0.00532915
0.0309524	0.00543933
0.0315476	0.00554974
0.0321429	0.00566038
0.0327381	0.00577125
0.0333333	0.00588235
0.0339286	0.00599369
0.0345238	0.00610526
0.035119	0.00621707
0.0357143	0.00632911
0.0363095	0.00644139
0.0369048	0.00655391
0.0375	0.00666667
0.0380952	0.00677966
0.0386905	0.0068929
0.0392857	0.00700637
0.039881	0.00712009
0.0404762	0.00723404
0.0410714	0.00734824
0.0416667	0.00746269
0.0422619	0.00757737
0.0428571	0.00769231
0.0434524	0.00780749
0.0440476	0.00792291
0.0446429	0.00803859
0.0452381	0.00815451
0.0458333	0.00827068
0.0464286	0.0083871
0.0470238	0.00850377
0.047619	0.00862069
0.0482143	0.00873786
0.0488095	0.00885529
0.0494048	0.00897297
0.05	0.00909091
0.0505952	0.0092091
0.0511905	0.00932755
0.0517857	0.00944625
0.052381	0.00956522
0.0529762	0.00968444
0.0535714	0.00980392
0.0541667	0.00992366
0.0547619	0.0100437
0.0553571	0.0101639
0.0559524	0.0102845
0.0565476	0.0104053
0.0571429	0.0105263
0.0577381	0.0106476
0.0583333	0.0107692
0.0589286	0.0108911
0.0595238	0.0110132
0.060119	0.0111356
0.0607143	0.0112583
0.0613095	0.0113812
0.0619048	0.0115044
0.0625	0.0116279
0.0630952	0.0117517
0.0636905	0.0118757
0.0642857	0.012
0.064881	0.0121246
0.0654762	0.0122494
0.0660714	0.0123746
0.0666667	0.0125
0.0672619	0.0126257
0.0678571	0.0127517
0.0684524	0.0128779
0.0690476	0.0130045
0.0696429	0.0131313
0.0702381	0.0132584
0.0708333	0.0133858
0.0714286	0.0135135
0.0720238	0.0136415
0.072619	0.0137698
0.0732143	0.0138983
0.0738095	0.0140271
0.0744048	0.0141563
0.075	0.0142857
0.0755952	0.0144154
0.0761905	0.0145455
0.0767857	0.0146758
0.077381	0.0148064
0.0779762	0.0149373
0.0785714	0.0150685
0.0791667	0.0152
0.0797619	0.0153318
0.0803571	0.0154639
0.0809524	0.0155963
0.0815476	0.015729
0.0821429	0.0158621
0.0827381	0.0159954
0.0833333	0.016129
0.0839286	0.016263
0.0845238	0.0163972
0.085119	0.0165318
0.0857143	0.0166667
0.0863095	0.0168019
0.0869048	0.0169374
0.0875	0.0170732
0.0880952	0.0172093
0.0886905	0.0173458
0.0892857	0.0174825
0.089881	0.0176196
0.0904762	0.017757
0.0910714	0.0178947
0.0916667	0.0180328
0.0922619	0.0181712
0.0928571	0.0183099
0.0934524	0.0184489
0.0940476	0.0185882
0.0946429	0.0187279
0.0952381	0.0188679
0.0958333	0.0190083
0.0964286	0.0191489
0.0970238	0.0192899
0.097619	0.0194313
0.0982143	0.019573
0.0988095	0.019715
0.0994048	0.0198573
0.1	0.02
0.100595	0.020143
0.10119	0.0202864
0.101786	0.0204301
0.102381	0.0205742
0.102976	0.0207186
0.103571	0.0208633
0.104167	0.0210084
0.104762	0.0211538
0.105357	0.0212996
0.105952	0.0214458
0.106548	0.0215923
0.107143	0.0217391
0.107738	0.0218863
0.108333	0.0220339
0.108929	0.0221818
0.109524	0.0223301
0.110119	0.0224787
0.110714	0.0226277
0.11131	0.0227771
0.111905	0.0229268
0.1125	0.0230769
0.113095	0.0232274
0.11369	0.0233782
0.114286	0.0235294
0.114881	0.023681
0.115476	0.0238329
0.116071	0.0239852
0.116667	0.0241379
0.117262	0.024291
0.117857	0.0244444
0.118452	0.0245983
0.119048	0.0247525
0.119643	0.0249071
0.120238	0.025062
0.120833	0.0252174
0.121429	0.0253731
0.122024	0.0255293
0.122619	0.0256858
0.123214	0.0258427
0.12381	0.026
0.124405	0.0261577
0.125	0.0263158
0.125595	0.0264743
0.12619	0.0266332
0.126786	0.0267925
0.127381	0.0269521
0.127976	0.0271122
0.128571	0.0272727
0.129167	0.0274336
0.129762	0.0275949
0.130357	0.0277567
0.130952	0.0279188
0.131548	0.0280813
0.132143	0.0282443
0.132738	0.0284076
0.133333	0.0285714
0.133929	0.0287356
0.134524	0.0289003
0.135119	0.0290653
0.135714	0.0292308
0.13631	0.0293967
0.136905	0.029563
0.1375	0.0297297
0.138095	0.0298969
0.13869	0.0300645
0.139286	0.0302326
0.139881	0.030401
0.140476	0.0305699
0.141071	0.0307393
0.141667	0.0309091
0.142262	0.0310793
0.142857	0.03125
0.143452	0.0314211
0.144048	0.0315927
0.144643	0.0317647
0.145238	0.0319372
0.145833	0.0321101
0.146429	0.0322835
0.147024	0.0324573
0.147619	0.0326316
0.148214	0.0328063
0.14881	0.0329815
0.149405	0.0331572
0.15	0.0333333
0.150595	0.0335099
0.15119	0.033687
0.151786	0.0338645
0.152381	0.0340426
0.152976	0.034221
0.153571	0.0344
0.154167	0.0345794
0.154762	0.0347594
0.155357	0.0349398
0.155952	0.0351206
0.156548	0.035302
0.157143	0.0354839
0.157738	0.0356662
0.158333	0.0358491
0.158929	0.0360324
0.159524	0.0362162
0.160119	0.0364005
0.160714	0.0365854
0.16131	0.0367707
0.161905	0.0369565
0.1625	0.0371429
0.163095	0.0373297
0.16369	0.0375171
0.164286	0.0377049
0.164881	0.0378933
0.165476	0.0380822
0.166071	0.0382716
0.166667	0.0384615
0.167262	0.038652
0.167857	0.038843
0.168452	0.0390345
0.169048	0.0392265
0.169643	0.0394191
0.170238	0.0396122
0.170833	0.0398058
0.171429	0.04
0.172024	0.0401947
0.172619	0.04039
0.173214	0.0405858
0.17381	0.0407821
0.174405	0.040979
0.175	0.0411765
0.175595	0.0413745
0.17619	0.041573
0.176786	0.0417722
0.177381	0.0419718
0.177976	0.0421721
0.178571	0.0423729
0.179167	0.0425743
0.179762	0.0427762
0.180357	0.0429787
0.180952	0.0431818
0.181548	0.0433855
0.182143	0.0435897
0.182738	0.0437946
0.183333	0.044
0.183929	0.044206
0.184524	0.0444126
0.185119	0.0446198
0.185714	0.0448276
0.18631	0.045036
0.186905	0.045245
0.1875	0.0454545
0.188095	0.0456647
0.18869	0.0458755
0.189286	0.046087
0.189881	0.046299
0.190476	0.0465116
0.191071	0.0467249
0.191667	0.0469388
0.192262	0.0471533
0.192857	0.0473684
0.193452	0.0475842
0.194048	0.0478006
0.194643	0.0480176
0.195238	0.0482353
0.195833	0.0484536
0.196429	0.0486726
0.197024	0.0488922
0.197619	0.0491124
0.198214	0.0493333
0.19881	0.0495549
0.199405	0.0497771
0.2	0.05
0.200595	0.0502235
0.20119	0.0504478
0.201786	0.0506726
0.202381	0.0508982
0.202976	0.0511244
0.203571	0.0513514
0.204167	0.0515789
0.204762	0.0518072
0.205357	0.0520362
0.205952	0.0522659
0.206548	0.0524962
0.207143	0.0527273
0.207738	0.052959
0.208333	0.0531915
0.208929	0.0534247
0.209524	0.0536585
0.210119	0.0538931
0.210714	0.0541284
0.21131	0.0543645
0.211905	0.0546012
0.2125	0.0548387
0.213095	0.0550769
0.21369	0.0553159
0.214286	0.0555556
0.214881	0.055796
0.215476	0.0560372
0.216071	0.0562791
0.216667	0.0565217
0.217262	0.0567652
0.217857	0.0570093
0.218452	0.0572543
0.219048	0.0575
0.219643	0.0577465
0.220238	0.0579937
0.220833	0.0582418
0.221429	0.0584906
0.222024	0.0587402
0.222619	0.0589905
0.223214	0.0592417
0.22381	0.0594937
0.224405	0.0597464
0.225	0.06
0.225595	0.0602544
0.22619	0.0605096
0.226786	0.0607656
0.227381	0.0610224
0.227976	0.06128
0.228571	0.0615385
0.229167	0.0617978
0.229762	0.0620579
0.230357	0.0623188
0.230952	0.0625806
0.231548	0.0628433
0.232143	0.0631068
0.232738	0.0633712
0.233333	0.0636364
0.233929	0.0639024
0.234524	0.0641694
0.235119	0.0644372
0.235714	0.0647059
0.23631	0.0649755
0.236905	0.0652459
0.2375	0.0655172
0.238095	0.0657895
0.23869	0.0660626
0.239286	0.0663366
0.239881	0.0666116
0.240476	0.0668874
0.241071	0.0671642
0.241667	0.0674419
0.242262	0.0677205
0.242857	0.068
0.243452	0.0682805
0.244048	0.0685619
0.244643	0.0688442
0.245238	0.0691275
0.245833	0.0694118
0.246429	0.069697
0.247024	0.0699831
0.247619	0.0702703
0.248214	0.0705584
0.24881	0.0708475
0.249405	0.0711375
0.25	0.0714286
0.250595	0.0717206
0.25119	0.0720137
0.251786	0.0723077
0.252381	0.0726027
0.252976	0.0728988
0.253571	0.0731959
0.254167	0.073494
0.254762	0.0737931
0.255357	0.0740933
0.255952	0.0743945
0.256548	0.0746967
0.257143	0.075
0.257738	0.0753043
0.258333	0.0756098
0.258929	0.0759162
0.259524	0.0762238
0.260119	0.0765324
0.260714	0.0768421
0.26131	0.0771529
0.261905	0.0774648
0.2625	0.0777778
0.263095	0.0780919
0.26369	0.0784071
0.264286	0.0787234
0.264881	0.0790409
0.265476	0.0793594
0.266071	0.0796791
0.266667	0.08
0.267262	0.080322
0.267857	0.0806452
0.268452	0.0809695
0.269048	0.081295
0.269643	0.0816216
0.270238	0.0819495
0.270833	0.0822785
0.271429	0.0826087
0.272024	0.0829401
0.272619	0.0832727
0.273214	0.0836066
0.27381	0.0839416
0.274405	0.0842779
0.275	0.0846154
0.275595	0.0849541
0.27619	0.0852941
0.276786	0.0856354
0.277381	0.0859779
0.277976	0.0863216
0.278571	0.0866667
0.279167	0.087013
0.279762	0.0873606
0.280357	0.0877095
0.280952	0.0880597
0.281548	0.0884112
0.282143	0.088764
0.282738	0.0891182
0.283333	0.0894737
0.283929	0.0898305
0.284524	0.0901887
0.285119	0.0905482
0.285714	0.0909091
0.28631	0.0912713
0.286905	0.091635
0.2875	0.092
0.288095	0.0923664
0.28869	0.0927342
0.289286	0.0931034
0.289881	0.0934741
0.290476	0.0938462
0.291071	0.0942197
0.291667	0.0945946
0.292262	0.094971
0.292857	0.0953488
0.293452	0.0957282
0.294048	0.0961089
0.294643	0.0964912
0.295238	0.096875
0.295833	0.0972603
0.296429	0.0976471
0.297024	0.0980354
0.297619	0.0984252
0.298214	0.0988166
0.29881	0.0992095
0.299405	0.099604
0.3	0.1
0.300595	0.100398
0.30119	0.100797
0.301786	0.101198
0.302381	0.1016
0.302976	0.102004
0.303571	0.10241
0.304167	0.102817
0.304762	0.103226
0.305357	0.103636
0.305952	0.104049
0.306548	0.104462
0.307143	0.104878
0.307738	0.105295
0.308333	0.105714
0.308929	0.106135
0.309524	0.106557
0.310119	0.106982
0.310714	0.107407
0.31131	0.107835
0.311905	0.108264
0.3125	0.108696
0.313095	0.109129
0.31369	0.109563
0.314286	0.11
0.314881	0.110438
0.315476	0.110879
0.316071	0.111321
0.316667	0.111765
0.317262	0.112211
0.317857	0.112658
0.318452	0.113108
0.319048	0.113559
0.319643	0.114013
0.320238	0.114468
0.320833	0.114925
0.321429	0.115385
0.322024	0.115846
0.322619	0.116309
0.323214	0.116774
0.32381	0.117241
0.324405	0.117711
0.325	0.118182
0.325595	0.118655
0.32619	0.11913
0.326786	0.119608
0.327381	0.120087
0.327976	0.120569
0.328571	0.121053
0.329167	0.121538
0.329762	0.122026
0.330357	0.122517
0.330952	0.123009
0.331548	0.123503
0.332143	0.124
0.332738	0.124499
0.333333	0.125
0.333929	0.125503
0.334524	0.126009
0.335119	0.126517
0.335714	0.127027
0.33631	0.12754
0.336905	0.128054
0.3375	0.128571
0.338095	0.129091
0.33869	0.129613
0.339286	0.130137
0.339881	0.130664
0.340476	0.131193
0.341071	0.131724
0.341667	0.132258
0.342262	0.132794
0.342857	0.133333
0.343452	0.133875
0.344048	0.134419
0.344643	0.134965
0.345238	0.135514
0.345833	0.136066
0.346429	0.13662
0.347024	0.137176
0.347619	0.137736
0.348214	0.138298
0.34881	0.138863
0.349405	0.13943
0.35	0.14
0.350595	0.140573
0.35119	0.141148
0.351786	0.141727
0.352381	0.142308
0.352976	0.142892
0.353571	0.143478
0.354167	0.144068
0.354762	0.14466
0.355357	0.145255
0.355952	0.145854
0.356548	0.146455
0.357143	0.147059
0.357738	0.147666
0.358333	0.148276
0.358929	0.148889
0.359524	0.149505
0.360119	0.150124
0.360714	0.150746
0.36131	0.151372
0.361905	0.152
0.3625	0.152632
0.363095	0.153266
0.36369	0.153904
0.364286	0.154545
0.364881	0.15519
0.365476	0.155838
0.366071	0.156489
0.366667	0.157143
0.367262	0.157801
0.367857	0.158462
0.368452	0.159126
0.369048	0.159794
0.369643	0.160465
0.370238	0.16114
0.370833	0.161818
0.371429	0.1625
0.372024	0.163185
0.372619	0.163874
0.373214	0.164567
0.37381	0.165263
0.374405	0.165963
0.375	0.166667
0.375595	0.167374
0.37619	0.168085
0.376786	0.1688
0.377381	0.169519
0.377976	0.170241
0.378571	0.170968
0.379167	0.171698
0.379762	0.172432
0.380357	0.173171
0.380952	0.173913
0.381548	0.174659
0.382143	0.17541
0.382738	0.176164
0.383333	0.176923
0.383929	0.177686
0.384524	0.178453
0.385119	0.179224
0.385714	0.18
0.38631	0.18078
0.386905	0.181564
0.3875	0.182353
0.388095	0.183146
0.38869	0.183944
0.389286	0.184746
0.389881	0.185552
0.390476	0.186364
0.391071	0.187179
0.391667	0.188
0.392262	0.188825
0.392857	0.189655
0.393452	0.19049
0.394048	0.191329
0.394643	0.192174
0.395238	0.193023
0.395833	0.193878
0.396429	0.194737
0.397024	0.195601
0.397619	0.196471
0.398214	0.197345
0.39881	0.198225
0.399405	0.19911
0.4	0.2
0.400595	0.200896
0.40119	0.201796
0.401786	0.202703
0.402381	0.203614
0.402976	0.204532
0.403571	0.205455
0.404167	0.206383
0.404762	0.207317
0.405357	0.208257
0.405952	0.209202
0.406548	0.210154
0.407143	0.211111
0.407738	0.212074
0.408333	0.213043
0.408929	0.214019
0.409524	0.215
0.410119	0.215987
0.410714	0.216981
0.41131	0.217981
0.411905	0.218987
0.4125	0.22
0.413095	0.221019
0.41369	0.222045
0.414286	0.223077
0.414881	0.224116
0.415476	0.225161
0.416071	0.226214
0.416667	0.227273
0.417262	0.228339
0.417857	0.229412
0.418452	0.230492
0.419048	0.231579
0.419643	0.232673
0.420238	0.233775
0.420833	0.234884
0.421429	0.236
0.422024	0.237124
0.422619	0.238255
0.423214	0.239394
0.42381	0.240541
0.424405	0.241695
0.425	0.242857
0.425595	0.244027
0.42619	0.245205
0.426786	0.246392
0.427381	0.247586
0.427976	0.248789
0.428571	0.25
0.429167	0.25122
0.429762	0.252448
0.430357	0.253684
0.430952	0.25493
0.431548	0.256184
0.432143	0.257447
0.432738	0.258719
0.433333	0.26
0.433929	0.26129
0.434524	0.26259
0.435119	0.263899
0.435714	0.265217
0.43631	0.266545
0.436905	0.267883
0.4375	0.269231
0.438095	0.270588
0.43869	0.271956
0.439286	0.273333
0.439881	0.274721
0.440476	0.276119
0.441071	0.277528
0.441667	0.278947
0.442262	0.280377
0.442857	0.281818
0.443452	0.28327
0.444048	0.284733
0.444643	0.286207
0.445238	0.287692
0.445833	0.289189
0.446429	0.290698
0.447024	0.292218
0.447619	0.29375
0.448214	0.295294
0.44881	0.29685
0.449405	0.298419
0.45	0.3
0.450595	0.301594
0.45119	0.3032
0.451786	0.304819
0.452381	0.306452
0.452976	0.308097
0.453571	0.309756
0.454167	0.311429
0.454762	0.313115
0.455357	0.314815
0.455952	0.316529
0.456548	0.318257
0.457143	0.32
0.457738	0.321757
0.458333	0.323529
0.458929	0.325316
0.459524	0.327119
0.460119	0.328936
0.460714	0.330769
0.46131	0.332618
0.461905	0.334483
0.4625	0.336364
0.463095	0.338261
0.46369	0.340175
0.464286	0.342105
0.464881	0.344053
0.465476	0.346018
0.466071	0.348
0.466667	0.35
0.467262	0.352018
0.467857	0.354054
0.468452	0.356109
0.469048	0.358182
0.469643	0.360274
0.470238	0.362385
0.470833	0.364516
0.471429	0.366667
0.472024	0.368837
0.472619	0.371028
0.473214	0.373239
0.47381	0.375472
0.474405	0.377725
0.475	0.38
0.475595	0.382297
0.47619	0.384615
0.476786	0.386957
0.477381	0.38932
0.477976	0.391707
0.478571	0.394118
0.479167	0.396552
0.479762	0.39901
0.480357	0.401493
0.480952	0.404
0.481548	0.406533
0.482143	0.409091
0.482738	0.411675
0.483333	0.414286
0.483929	0.416923
0.484524	0.419588
0.485119	0.42228
0.485714	0.425
0.48631	0.427749
0.486905	0.430526
0.4875	0.433333
0.488095	0.43617
0.48869	0.439037
0.489286	0.441935
0.489881	0.444865
0.490476	0.447826
0.491071	0.45082
0.491667	0.453846
0.492262	0.456906
0.492857	0.46
0.493452	0.463128
0.494048	0.466292
0.494643	0.469492
0.495238	0.472727
0.495833	0.476
0.496429	0.47931
0.497024	0.482659
0.497619	0.486047
0.498214	0.489474
0.49881	0.492941
0.499405	0.49645
0.5	0.5
0.500595	0.50355
0.50119	0.507059
0.501786	0.510526
0.502381	0.513953
0.502976	0.517341
0.503571	0.52069
0.504167	0.524
0.504762	0.527273
0.505357	0.530508
0.505952	0.533708
0.506548	0.536872
0.507143	0.54
0.507738	0.543094
0.508333	0.546154
0.508929	0.54918
0.509524	0.552174
0.510119	0.555135
0.510714	0.558065
0.51131	0.560963
0.511905	0.56383
0.5125	0.566667
0.513095	0.569474
0.51369	0.572251
0.514286	0.575
0.514881	0.57772
0.515476	0.580412
0.516071	0.583077
0.516667	0.585714
0.517262	0.588325
0.517857	0.590909
0.518452	0.593467
0.519048	0.596
0.519643	0.598507
0.520238	0.60099
0.520833	0.603448
0.521429	0.605882
0.522024	0.608293
0.522619	0.61068
0.523214	0.613043
0.52381	0.615385
0.524405	0.617703
0.525	0.62
0.525595	0.622275
0.52619	0.624528
0.526786	0.626761
0.527381	0.628972
0.527976	0.631163
0.528571	0.633333
0.529167	0.635484
0.529762	0.637615
0.530357	0.639726
0.530952	0.641818
0.531548	0.643891
0.532143	0.645946
0.532738	0.647982
0.533333	0.65
0.533929	0.652
0.534524	0.653982
0.535119	0.655947
0.535714	0.657895
0.53631	0.659825
0.536905	0.661739
0.5375	0.663636
0.538095	0.665517
0.53869	0.667382
0.539286	0.669231
0.539881	0.671064
0.540476	0.672881
0.541071	0.674684
0.541667	0.676471
0.542262	0.678243
0.542857	0.68
0.543452	0.681743
0.544048	0.683471
0.544643	0.685185
0.545238	0.686885
0.545833	0.688571
0.546429	0.690244
0.547024	0.691903
0.547619	0.693548
0.548214	0.695181
0.54881	0.6968
0.549405	0.698406
0.55	0.7
0.550595	0.701581
0.55119	0.70315
0.551786	0.704706
0.552381	0.70625
0.552976	0.707782
0.553571	0.709302
0.554167	0.710811
0.554762	0.712308
0.555357	0.713793
0.555952	0.715267
0.556548	0.71673
0.557143	0.718182
0.557738	0.719623
0.558333	0.721053
0.558929	0.722472
0.559524	0.723881
0.560119	0.725279
0.560714	0.726667
0.56131	0.728044
0.561905	0.729412
0.5625	0.730769
0.563095	0.732117
0.56369	0.733455
0.564286	0.734783
0.564881	0.736101
0.565476	0.73741
0.566071	0.73871
0.566667	0.74
0.567262	0.741281
0.567857	0.742553
0.568452	0.743816
0.569048	0.74507
0.569643	0.746316
0.570238	0.747552
0.570833	0.74878
0.571429	0.75
0.572024	0.751211
0.572619	0.752414
0.573214	0.753608
0.57381	0.754795
0.574405	0.755973
0.575	0.757143
0.575595	0.758305
0.57619	0.759459
0.576786	0.760606
0.577381	0.761745
0.577976	0.762876
0.578571	0.764
0.579167	0.765116
0.579762	0.766225
0.580357	0.767327
0.580952	0.768421
0.581548	0.769508
0.582143	0.770588
0.582738	0.771661
0.583333	0.772727
0.583929	0.773786
0.584524	0.774839
0.585119	0.775884
0.585714	0.776923
0.58631	0.777955
0.586905	0.778981
0.5875	0.78
0.588095	0.781013
0.58869	0.782019
0.589286	0.783019
0.589881	0.784013
0.590476	0.785
0.591071	0.785981
0.591667	0.786957
0.592262	0.787926
0.592857	0.788889
0.593452	0.789846
0.594048	0.790798
0.594643	0.791743
0.595238	0.792683
0.595833	0.793617
0.596429	0.794545
0.597024	0.795468
0.597619	0.796386
0.598214	0.797297
0.59881	0.798204
0.599405	0.799104
0.6	0.8
0.600595	0.80089
0.60119	0.801775
0.601786	0.802655
0.602381	0.803529
0.602976	0.804399
0.603571	0.805263
0.604167	0.806122
0.604762	0.806977
0.605357	0.807826
0.605952	0.808671
0.606548	0.80951
0.607143	0.810345
0.607738	0.811175
0.608333	0.812
0.608929	0.812821
0.609524	0.813636
0.610119	0.814448
0.610714	0.815254
0.61131	0.816056
0.611905	0.816854
0.6125	0.817647
0.613095	0.818436
0.61369	0.81922
0.614286	0.82
0.614881	0.820776
0.615476	0.821547
0.616071	0.822314
0.616667	0.823077
0.617262	0.823836
0.617857	0.82459
0.618452	0.825341
0.619048	0.826087
0.619643	0.826829
0.620238	0.827568
0.620833	0.828302
0.621429	0.829032
0.622024	0.829759
0.622619	0.830481
0.623214	0.8312
0.62381	0.831915
0.624405	0.832626
0.625	0.833333
0.625595	0.834037
0.62619	0.834737
0.626786	0.835433
0.627381	0.836126
0.627976	0.836815
0.628571	0.8375
0.629167	0.838182
0.629762	0.83886
0.630357	0.839535
0.630952	0.840206
0.631548	0.840874
0.632143	0.841538
0.632738	0.842199
0.633333	0.842857
0.633929	0.843511
0.634524	0.844162
0.635119	0.84481
0.635714	0.845455
0.63631	0.846096
0.636905	0.846734
0.6375	0.847368
0.638095	0.848
0.63869	0.848628
0.639286	0.849254
0.639881	0.849876
0.640476	0.850495
0.641071	0.851111
0.641667	0.851724
0.642262	0.852334
0.642857	0.852941
0.643452	0.853545
0.644048	0.854146
0.644643	0.854745
0.645238	0.85534
0.645833	0.855932
0.646429	0.856522
0.647024	0.857108
0.647619	0.857692
0.648214	0.858273
0.64881	0.858852
0.649405	0.859427
0.65	0.86
0.650595	0.86057
0.65119	0.861137
0.651786	0.861702
0.652381	0.862264
0.652976	0.862824
0.653571	0.86338
0.654167	0.863934
0.654762	0.864486
0.655357	0.865035
0.655952	0.865581
0.656548	0.866125
0.657143	0.866667
0.657738	0.867206
0.658333	0.867742
0.658929	0.868276
0.659524	0.868807
0.660119	0.869336
0.660714	0.869863
0.66131	0.870387
0.661905	0.870909
0.6625	0.871429
0.663095	0.871946
0.66369	0.87246
0.664286	0.872973
0.664881	0.873483
0.665476	0.873991
0.666071	0.874497
0.666667	0.875
0.667262	0.875501
0.667857	0.876
0.668452	0.876497
0.669048	0.876991
0.669643	0.877483
0.670238	0.877974
0.670833	0.878462
0.671429	0.878947
0.672024	0.879431
0.672619	0.879913
0.673214	0.880392
0.67381	0.88087
0.674405	0.881345
0.675	0.881818
0.675595	0.882289
0.67619	0.882759
0.676786	0.883226
0.677381	0.883691
0.677976	0.884154
0.678571	0.884615
0.679167	0.885075
0.679762	0.885532
0.680357	0.885987
0.680952	0.886441
0.681548	0.886892
0.682143	0.887342
0.682738	0.887789
0.683333	0.888235
0.683929	0.888679
0.684524	0.889121
0.685119	0.889562
0.685714	0.89
0.68631	0.890437
0.686905	0.890871
0.6875	0.891304
0.688095	0.891736
0.68869	0.892165
0.689286	0.892593
0.689881	0.893018
0.690476	0.893443
0.691071	0.893865
0.691667	0.894286
0.692262	0.894705
0.692857	0.895122
0.693452	0.895538
0.694048	0.895951
0.694643	0.896364
0.695238	0.896774
0.695833	0.897183
0.696429	0.89759
0.697024	0.897996
0.697619	0.8984
0.698214	0.898802
0.69881	0.899203
0.699405	0.899602
0.7	0.9
0.700595	0.900396
0.70119	0.900791
0.701786	0.901183
0.702381	0.901575
0.702976	0.901965
0.703571	0.902353
0.704167	0.90274
0.704762	0.903125
0.705357	0.903509
0.705952	0.903891
0.706548	0.904272
0.707143	0.904651
0.707738	0.905029
0.708333	0.905405
0.708929	0.90578
0.709524	0.906154
0.710119	0.906526
0.710714	0.906897
0.71131	0.907266
0.711905	0.907634
0.7125	0.908
0.713095	0.908365
0.71369	0.908729
0.714286	0.909091
0.714881	0.909452
0.715476	0.909811
0.716071	0.910169
0.716667	0.910526
0.717262	0.910882
0.717857	0.911236
0.718452	0.911589
0.719048	0.91194
0.719643	0.912291
0.720238	0.912639
0.720833	0.912987
0.721429	0.913333
0.722024	0.913678
0.722619	0.914022
0.723214	0.914365
0.72381	0.914706
0.724405	0.915046
0.725	0.915385
0.725595	0.915722
0.72619	0.916058
0.726786	0.916393
0.727381	0.916727
0.727976	0.91706
0.728571	0.917391
0.729167	0.917722
0.729762	0.918051
0.730357	0.918378
0.730952	0.918705
0.731548	0.919031
0.732143	0.919355
0.732738	0.919678
0.733333	0.92
0.733929	0.920321
0.734524	0.920641
0.735119	0.920959
0.735714	0.921277
0.73631	0.921593
0.736905	0.921908
0.7375	0.922222
0.738095	0.922535
0.73869	0.922847
0.739286	0.923158
0.739881	0.923468
0.740476	0.923776
0.741071	0.924084
0.741667	0.92439
0.742262	0.924696
0.742857	0.925
0.743452	0.925303
0.744048	0.925606
0.744643	0.925907
0.745238	0.926207
0.745833	0.926506
0.746429	0.926804
0.747024	0.927101
0.747619	0.927397
0.748214	0.927692
0.74881	0.927986
0.749405	0.928279
0.75	0.928571
0.750595	0.928862
0.75119	0.929153
0.751786	0.929442
0.752381	0.92973
0.752976	0.930017
0.753571	0.930303
0.754167	0.930588
0.754762	0.930872
0.755357	0.931156
0.755952	0.931438
0.756548	0.93172
0.757143	0.932
0.757738	0.93228
0.758333	0.932558
0.758929	0.932836
0.759524	0.933113
0.760119	0.933388
0.760714	0.933663
0.76131	0.933937
0.761905	0.934211
0.7625	0.934483
0.763095	0.934754
0.76369	0.935025
0.764286	0.935294
0.764881	0.935563
0.765476	0.935831
0.766071	0.936098
0.766667	0.936364
0.767262	0.936629
0.767857	0.936893
0.768452	0.937157
0.769048	0.937419
0.769643	0.937681
0.770238	0.937942
0.770833	0.938202
0.771429	0.938462
0.772024	0.93872
0.772619	0.938978
0.773214	0.939234
0.77381	0.93949
0.774405	0.939746
0.775	0.94
0.775595	0.940254
0.77619	0.940506
0.776786	0.940758
0.777381	0.941009
0.777976	0.94126
0.778571	0.941509
0.779167	0.941758
0.779762	0.942006
0.780357	0.942254
0.780952	0.9425
0.781548	0.942746
0.782143	0.942991
0.782738	0.943235
0.783333	0.943478
0.783929	0.943721
0.784524	0.943963
0.785119	0.944204
0.785714	0.944444
0.78631	0.944684
0.786905	0.944923
0.7875	0.945161
0.788095	0.945399
0.78869	0.945636
0.789286	0.945872
0.789881	0.946107
0.790476	0.946341
0.791071	0.946575
0.791667	0.946809
0.792262	0.947041
0.792857	0.947273
0.793452	0.947504
0.794048	0.947734
0.794643	0.947964
0.795238	0.948193
0.795833	0.948421
0.796429	0.948649
0.797024	0.948876
0.797619	0.949102
0.798214	0.949327
0.79881	0.949552
0.799405	0.949776
0.8	0.95
0.800595	0.950223
0.80119	0.950445
0.801786	0.950667
0.802381	0.950888
0.802976	0.951108
0.803571	0.951327
0.804167	0.951546
0.804762	0.951765
0.805357	0.951982
0.805952	0.952199
0.806548	0.952416
0.807143	0.952632
0.807738	0.952847
0.808333	0.953061
0.808929	0.953275
0.809524	0.953488
0.810119	0.953701
0.810714	0.953913
0.81131	0.954124
0.811905	0.954335
0.8125	0.954545
0.813095	0.954755
0.81369	0.954964
0.814286	0.955172
0.814881	0.95538
0.815476	0.955587
0.816071	0.955794
0.816667	0.956
0.817262	0.956205
0.817857	0.95641
0.818452	0.956615
0.819048	0.956818
0.819643	0.957021
0.820238	0.957224
0.820833	0.957426
0.821429	0.957627
0.822024	0.957828
0.822619	0.958028
0.823214	0.958228
0.82381	0.958427
0.824405	0.958626
0.825	0.958824
0.825595	0.959021
0.82619	0.959218
0.826786	0.959414
0.827381	0.95961
0.827976	0.959805
0.828571	0.96
0.829167	0.960194
0.829762	0.960388
0.830357	0.960581
0.830952	0.960773
0.831548	0.960966
0.832143	0.961157
0.832738	0.961348
0.833333	0.961538
0.833929	0.961728
0.834524	0.961918
0.835119	0.962107
0.835714	0.962295
0.83631	0.962483
0.836905	0.96267
0.8375	0.962857
0.838095	0.963043
0.83869	0.963229
0.839286	0.963415
0.839881	0.963599
0.840476	0.963784
0.841071	0.963968
0.841667	0.964151
0.842262	0.964334
0.842857	0.964516
0.843452	0.964698
0.844048	0.964879
0.844643	0.96506
0.845238	0.965241
0.845833	0.965421
0.846429	0.9656
0.847024	0.965779
0.847619	0.965957
0.848214	0.966135
0.84881	0.966313
0.849405	0.96649
0.85	0.966667
0.850595	0.966843
0.85119	0.967018
0.851786	0.967194
0.852381	0.967368
0.852976	0.967543
0.853571	0.967717
0.854167	0.96789
0.854762	0.968063
0.855357	0.968235
0.855952	0.968407
0.856548	0.968579
0.857143	0.96875
0.857738	0.968921
0.858333	0.969091
0.858929	0.969261
0.859524	0.96943
0.860119	0.969599
0.860714	0.969767
0.86131	0.969935
0.861905	0.970103
0.8625	0.97027
0.863095	0.970437
0.86369	0.970603
0.864286	0.970769
0.864881	0.970935
0.865476	0.9711
0.866071	0.971264
0.866667	0.971429
0.867262	0.971592
0.867857	0.971756
0.868452	0.971919
0.869048	0.972081
0.869643	0.972243
0.870238	0.972405
0.870833	0.972566
0.871429	0.972727
0.872024	0.972888
0.872619	0.973048
0.873214	0.973208
0.87381	0.973367
0.874405	0.973526
0.875	0.973684
0.875595	0.973842
0.87619	0.974
0.876786	0.974157
0.877381	0.974314
0.877976	0.974471
0.878571	0.974627
0.879167	0.974783
0.879762	0.974938
0.880357	0.975093
0.880952	0.975248
0.881548	0.975402
0.882143	0.975556
0.882738	0.975709
0.883333	0.975862
0.883929	0.976015
0.884524	0.976167
0.885119	0.976319
0.885714	0.976471
0.88631	0.976622
0.886905	0.976773
0.8875	0.976923
0.888095	0.977073
0.88869	0.977223
0.889286	0.977372
0.889881	0.977521
0.890476	0.97767
0.891071	0.977818
0.891667	0.977966
0.892262	0.978114
0.892857	0.978261
0.893452	0.978408
0.894048	0.978554
0.894643	0.9787
0.895238	0.978846
0.895833	0.978992
0.896429	0.979137
0.897024	0.979281
0.897619	0.979426
0.898214	0.97957
0.89881	0.979714
0.899405	0.979857
0.9	0.98
0.900595	0.980143
0.90119	0.980285
0.901786	0.980427
0.902381	0.980569
0.902976	0.98071
0.903571	0.980851
0.904167	0.980992
0.904762	0.981132
0.905357	0.981272
0.905952	0.981412
0.906548	0.981551
0.907143	0.98169
0.907738	0.981829
0.908333	0.981967
0.908929	0.982105
0.909524	0.982243
0.910119	0.98238
0.910714	0.982517
0.91131	0.982654
0.911905	0.982791
0.9125	0.982927
0.913095	0.983063
0.91369	0.983198
0.914286	0.983333
0.914881	0.983468
0.915476	0.983603
0.916071	0.983737
0.916667	0.983871
0.917262	0.984005
0.917857	0.984138
0.918452	0.984271
0.919048	0.984404
0.919643	0.984536
0.920238	0.984668
0.920833	0.9848
0.921429	0.984932
0.922024	0.985063
0.922619	0.985194
0.923214	0.985324
0.92381	0.985455
0.924405	0.985585
0.925	0.985714
0.925595	0.985844
0.92619	0.985973
0.926786	0.986102
0.927381	0.98623
0.927976	0.986359
0.928571	0.986486
0.929167	0.986614
0.929762	0.986742
0.930357	0.986869
0.930952	0.986996
0.931548	0.987122
0.932143	0.987248
0.932738	0.987374
0.933333	0.9875
0.933929	0.987625
0.934524	0.987751
0.935119	0.987875
0.935714	0.988
0.93631	0.988124
0.936905	0.988248
0.9375	0.988372
0.938095	0.988496
0.93869	0.988619
0.939286	0.988742
0.939881	0.988864
0.940476	0.988987
0.941071	0.989109
0.941667	0.989231
0.942262	0.989352
0.942857	0.989474
0.943452	0.989595
0.944048	0.989716
0.944643	0.989836
0.945238	0.989956
0.945833	0.990076
0.946429	0.990196
0.947024	0.990316
0.947619	0.990435
0.948214	0.990554
0.94881	0.990672
0.949405	0.990791
0.95	0.990909
0.950595	0.991027
0.95119	0.991145
0.951786	0.991262
0.952381	0.991379
0.952976	0.991496
0.953571	0.991613
0.954167	0.991729
0.954762	0.991845
0.955357	0.991961
0.955952	0.992077
0.956548	0.992193
0.957143	0.992308
0.957738	0.992423
0.958333	0.992537
0.958929	0.992652
0.959524	0.992766
0.960119	0.99288
0.960714	0.992994
0.96131	0.993107
0.961905	0.99322
0.9625	0.993333
0.963095	0.993446
0.96369	0.993559
0.964286	0.993671
0.964881	0.993783
0.965476	0.993895
0.966071	0.994006
0.966667	0.994118
0.967262	0.994229
0.967857	0.99434
0.968452	0.99445
0.969048	0.994561
0.969643	0.994671
0.970238	0.994781
0.970833	0.994891
0.971429	0.995
0.972024	0.995109
0.972619	0.995218
0.973214	0.995327
0.97381	0.995436
0.974405	0.995544
0.975	0.995652
0.975595	0.99576
0.97619	0.995868
0.976786	0.995975
0.977381	0.996082
0.977976	0.996189
0.978571	0.996296
0.979167	0.996403
0.979762	0.996509
0.980357	0.996615
0.980952	0.996721
0.981548	0.996827
0.982143	0.996933
0.982738	0.997038
0.983333	0.997143
0.983929	0.997248
0.984524	0.997352
0.985119	0.997457
0.985714	0.997561
0.98631	0.997665
0.986905	0.997769
0.9875	0.997872
0.988095	0.997976
0.98869	0.998079
0.989286	0.998182
0.989881	0.998285
0.990476	0.998387
0.991071	0.998489
0.991667	0.998592
0.992262	0.998693
0.992857	0.998795
0.993452	0.998897
0.994048	0.998998
0.994643	0.999099
0.995238	0.9992
0.995833	0.999301
0.996429	0.999401
0.997024	0.999501
0.997619	0.999602
0.998214	0.999701
0.99881	0.999801
0.999405	0.999901
1	1
