0	1.74237
0.0019861	1.74063
0.00397614	1.73888
0.00597015	1.73713
0.00796813	1.73538
0.00997009	1.73362
0.011976	1.73186
0.013986	1.7301
0.016	1.72833
0.018018	1.72656
0.0200401	1.72479
0.0220662	1.72301
0.0240964	1.72123
0.0261307	1.71945
0.028169	1.71766
0.0302115	1.71587
0.0322581	1.71407
0.0343088	1.71227
0.0363636	1.71047
0.0384226	1.70866
0.0404858	1.70685
0.0425532	1.70504
0.0446247	1.70322
0.0467005	1.7014
0.0487805	1.69958
0.0508647	1.69775
0.0529532	1.69592
0.0550459	1.69408
0.0571429	1.69224
0.0592441	1.6904
0.0613497	1.68855
0.0634596	1.6867
0.0655738	1.68485
0.0676923	1.68299
0.0698152	1.68113
0.0719424	1.67926
0.0740741	1.67739
0.0762101	1.67552
0.0783505	1.67364
0.0804954	1.67176
0.0826446	1.66987
0.0847983	1.66798
0.0869565	1.66609
0.0891192	1.66419
0.0912863	1.66229
0.0934579	1.66039
0.0956341	1.65848
0.0978148	1.65656
0.1	1.65465
0.10219	1.65273
0.104384	1.6508
0.106583	1.64887
0.108787	1.64694
0.110995	1.645
0.113208	1.64306
0.115425	1.64112
0.117647	1.63917
0.119874	1.63721
0.122105	1.63526
0.124341	1.6333
0.126582	1.63133
0.128828	1.62936
0.131078	1.62739
0.133333	1.62541
0.135593	1.62343
0.137858	1.62144
0.140127	1.61945
0.142402	1.61745
0.144681	1.61545
0.146965	1.61345
0.149254	1.61144
0.151547	1.60943
0.153846	1.60741
0.15615	1.60539
0.158458	1.60337
0.160772	1.60134
0.16309	1.59931
0.165414	1.59727
0.167742	1.59523
0.170075	1.59318
0.172414	1.59113
0.174757	1.58907
0.177106	1.58701
0.179459	1.58495
0.181818	1.58288
0.184182	1.5808
0.186551	1.57873
0.188925	1.57664
0.191304	1.57456
0.193689	1.57246
0.196078	1.57037
0.198473	1.56827
0.200873	1.56616
0.203279	1.56405
0.205689	1.56194
0.208105	1.55982
0.210526	1.5577
0.212953	1.55557
0.215385	1.55343
0.217822	1.5513
0.220264	1.54915
0.222712	1.54701
0.225166	1.54485
0.227624	1.5427
0.230088	1.54054
0.232558	1.53837
0.235033	1.5362
0.237514	1.53402
0.24	1.53184
0.242492	1.52966
0.244989	1.52746
0.247492	1.52527
0.25	1.52307
0.252514	1.52086
0.255034	1.51865
0.257559	1.51644
0.26009	1.51422
0.262626	1.51199
0.265169	1.50976
0.267717	1.50753
0.27027	1.50529
0.27283	1.50304
0.275395	1.50079
0.277966	1.49854
0.280543	1.49628
0.283126	1.49401
0.285714	1.49174
0.288309	1.48946
0.290909	1.48718
0.293515	1.4849
0.296128	1.48261
0.298746	1.48031
0.30137	1.47801
0.304	1.4757
0.306636	1.47339
0.309278	1.47107
0.311927	1.46875
0.314581	1.46642
0.317241	1.46409
0.319908	1.46175
0.322581	1.4594
0.32526	1.45705
0.327945	1.4547
0.330636	1.45234
0.333333	1.44997
0.336037	1.4476
0.338747	1.44522
0.341463	1.44284
0.344186	1.44045
0.346915	1.43806
0.34965	1.43566
0.352392	1.43325
0.35514	1.43084
0.357895	1.42842
0.360656	1.426
0.363423	1.42357
0.366197	1.42114
0.368978	1.4187
0.371765	1.41626
0.374558	1.41381
0.377358	1.41135
0.380165	1.40889
0.382979	1.40642
0.385799	1.40395
0.388626	1.40147
0.391459	1.39898
0.394299	1.39649
0.397146	1.39399
0.4	1.39149
0.402861	1.38898
0.405728	1.38647
0.408602	1.38394
0.411483	1.38142
0.414371	1.37888
0.417266	1.37634
0.420168	1.3738
0.423077	1.37125
0.425993	1.36869
0.428916	1.36613
0.431846	1.36356
0.434783	1.36098
0.437727	1.3584
0.440678	1.35581
0.443636	1.35321
0.446602	1.35061
0.449575	1.348
0.452555	1.34539
0.455542	1.34277
0.458537	1.34014
0.461538	1.33751
0.464548	1.33487
0.467564	1.33222
0.470588	1.32957
0.47362	1.32691
0.476658	1.32425
0.479705	1.32157
0.482759	1.31889
0.48582	1.31621
0.488889	1.31352
0.491965	1.31082
0.49505	1.30811
0.498141	1.3054
0.501241	1.30268
0.504348	1.29996
0.507463	1.29722
0.510585	1.29449
0.513716	1.29174
0.516854	1.28899
0.52	1.28623
0.523154	1.28346
0.526316	1.28069
0.529486	1.27791
0.532663	1.27512
0.535849	1.27232
0.539043	1.26952
0.542245	1.26671
0.545455	1.2639
0.548673	1.26108
0.551899	1.25825
0.555133	1.25541
0.558376	1.25256
0.561626	1.24971
0.564885	1.24685
0.568153	1.24399
0.571429	1.24111
0.574713	1.23823
0.578005	1.23535
0.581306	1.23245
0.584615	1.22955
0.587933	1.22664
0.59126	1.22372
0.594595	1.22079
0.597938	1.21786
0.60129	1.21492
0.604651	1.21197
0.608021	1.20902
0.611399	1.20605
0.614786	1.20308
0.618182	1.2001
0.621586	1.19712
0.625	1.19412
0.628422	1.19112
0.631854	1.18811
0.635294	1.18509
0.638743	1.18207
0.642202	1.17903
0.645669	1.17599
0.649146	1.17294
0.652632	1.16988
0.656126	1.16682
0.659631	1.16374
0.663144	1.16066
0.666667	1.15757
0.670199	1.15447
0.67374	1.15137
0.677291	1.14825
0.680851	1.14513
0.684421	1.142
0.688	1.13886
0.691589	1.13571
0.695187	1.13255
0.698795	1.12939
0.702413	1.12622
0.70604	1.12303
0.709677	1.11984
0.713324	1.11664
0.716981	1.11344
0.720648	1.11022
0.724324	1.107
0.728011	1.10376
0.731707	1.10052
0.735414	1.09727
0.73913	1.09401
0.742857	1.09074
0.746594	1.08746
0.750341	1.08417
0.754098	1.08088
0.757866	1.07757
0.761644	1.07426
0.765432	1.07094
0.769231	1.0676
0.77304	1.06426
0.77686	1.06091
0.78069	1.05755
0.78453	1.05418
0.788382	1.0508
0.792244	1.04742
0.796117	1.04402
0.8	1.04061
0.803894	1.0372
0.807799	1.03377
0.811715	1.03034
0.815642	1.02689
0.81958	1.02344
0.823529	1.01997
0.827489	1.0165
0.831461	1.01302
0.835443	1.00952
0.839437	1.00602
0.843441	1.00251
0.847458	0.998983
0.851485	0.99545
0.855524	0.991908
0.859574	0.988355
0.863636	0.984792
0.86771	0.981218
0.871795	0.977635
0.875892	0.974041
0.88	0.970437
0.88412	0.966823
0.888252	0.963199
0.892396	0.959564
0.896552	0.955918
0.900719	0.952263
0.904899	0.948596
0.909091	0.944919
0.913295	0.941231
0.917511	0.937533
0.921739	0.933824
0.92598	0.930104
0.930233	0.926374
0.934498	0.922632
0.938776	0.91888
0.943066	0.915117
0.947368	0.911342
0.951684	0.907557
0.956012	0.903761
0.960352	0.899953
0.964706	0.896134
0.969072	0.892304
0.973451	0.888463
0.977843	0.88461
0.982249	0.880746
0.986667	0.87687
0.991098	0.872983
0.995542	0.869085
1	0.865174
1.00447	0.861252
1.00896	0.857319
1.01345	0.853374
1.01796	0.849416
1.02249	0.845447
1.02703	0.841466
1.03158	0.837473
1.03614	0.833469
1.04072	0.829452
1.04532	0.825422
1.04992	0.821381
1.05455	0.817327
1.05918	0.813262
1.06383	0.809183
1.06849	0.805093
1.07317	0.800989
1.07786	0.796874
1.08257	0.792746
1.08729	0.788605
1.09202	0.784451
1.09677	0.780285
1.10154	0.776105
1.10632	0.771913
1.11111	0.767708
1.11592	0.76349
1.12074	0.759259
1.12558	0.755015
1.13043	0.750758
1.1353	0.746487
1.14019	0.742203
1.14509	0.737906
1.15	0.733595
1.15493	0.729271
1.15987	0.724933
1.16484	0.720582
1.16981	0.716217
1.1748	0.711838
1.17981	0.707446
1.18483	0.703039
1.18987	0.698619
1.19493	0.694184
1.2	0.689736
1.20509	0.685273
1.21019	0.680796
1.21531	0.676305
1.22045	0.671799
1.2256	0.66728
1.23077	0.662745
1.23596	0.658196
1.24116	0.653633
1.24638	0.649054
1.25161	0.644461
1.25687	0.639853
1.26214	0.635231
1.26742	0.630593
1.27273	0.62594
1.27805	0.621272
1.28339	0.616589
1.28874	0.61189
1.29412	0.607176
1.29951	0.602447
1.30492	0.597702
1.31034	0.592942
1.31579	0.588166
1.32125	0.583374
1.32673	0.578567
1.33223	0.573743
1.33775	0.568904
1.34328	0.564048
1.34884	0.559177
1.35441	0.554289
1.36	0.549385
1.36561	0.544464
1.37124	0.539527
1.37688	0.534574
1.38255	0.529604
1.38824	0.524617
1.39394	0.519613
1.39966	0.514593
1.40541	0.509556
1.41117	0.504501
1.41695	0.499429
1.42275	0.494341
1.42857	0.489234
1.43441	0.484111
1.44027	0.47897
1.44615	0.473811
1.45205	0.468635
1.45798	0.463441
1.46392	0.458229
1.46988	0.452999
1.47586	0.447751
1.48187	0.442485
1.48789	0.437201
1.49393	0.431899
1.5	0.426578
1.50609	0.421238
1.5122	0.41588
1.51832	0.410504
1.52448	0.405108
1.53065	0.399694
1.53684	0.39426
1.54306	0.388808
1.5493	0.383336
1.55556	0.377845
1.56184	0.372334
1.56814	0.366804
1.57447	0.361255
1.58082	0.355686
1.58719	0.350097
1.59358	0.344488
1.6	0.338859
1.60644	0.333209
1.6129	0.32754
1.61939	0.32185
1.6259	0.31614
1.63243	0.310409
1.63899	0.304657
1.64557	0.298885
1.65217	0.293092
1.6588	0.287278
1.66545	0.281442
1.67213	0.275586
1.67883	0.269708
1.68556	0.263808
1.69231	0.257887
1.69908	0.251944
1.70588	0.245979
1.71271	0.239993
1.71956	0.233984
1.72643	0.227953
1.73333	0.221899
1.74026	0.215824
1.74721	0.209725
1.75419	0.203604
1.76119	0.19746
1.76822	0.191293
1.77528	0.185103
1.78236	0.17889
1.78947	0.172654
1.79661	0.166393
1.80377	0.16011
1.81096	0.153802
1.81818	0.147471
1.82543	0.141116
1.8327	0.134736
1.84	0.128332
1.84733	0.121904
1.85468	0.115451
1.86207	0.108973
1.86948	0.102471
1.87692	0.0959435
1.88439	0.0893909
1.89189	0.082813
1.89942	0.0762096
1.90698	0.0695807
1.91456	0.062926
1.92218	0.0562454
1.92982	0.0495387
1.9375	0.0428059
1.94521	0.0360467
1.95294	0.029261
1.96071	0.0224486
1.9685	0.0156094
1.97633	0.00874329
1.98419	0.00184998
1.99208	-0.00507062
2	-0.0120187
2.00795	-0.0567024
2.01594	-0.0570784
2.02395	-0.0574577
2.032	-0.0578403
2.04008	-0.0582263
2.04819	-0.0586155
2.05634	-0.0590082
2.06452	-0.0594043
2.07273	-0.0598039
2.08097	-0.0602069
2.08925	-0.0606135
2.09756	-0.0610236
2.10591	-0.0614374
2.11429	-0.0618548
2.1227	-0.0622759
2.13115	-0.0627006
2.13963	-0.0631292
2.14815	-0.0635615
2.1567	-0.0639977
2.16529	-0.0644377
2.17391	-0.0648816
2.18257	-0.0653295
2.19127	-0.0657814
2.2	-0.0662373
2.20877	-0.0666973
2.21757	-0.0671614
2.22642	-0.0676296
2.23529	-0.0681021
2.24421	-0.0685788
2.25316	-0.0690598
2.26216	-0.0695451
2.27119	-0.0700348
2.28025	-0.070529
2.28936	-0.0710276
2.29851	-0.0715308
2.30769	-0.0720385
2.31692	-0.0725508
2.32618	-0.0730678
2.33548	-0.0735895
2.34483	-0.074116
2.35421	-0.0746473
2.36364	-0.0751835
2.3731	-0.0757246
2.38261	-0.0762707
2.39216	-0.0768219
2.40175	-0.0773781
2.41138	-0.0779394
2.42105	-0.078506
2.43077	-0.0790778
2.44053	-0.0796549
2.45033	-0.0802374
2.46018	-0.0808254
2.47007	-0.0814188
2.48	-0.0820178
2.48998	-0.0826224
2.5	-0.0832326
2.51007	-0.0838486
2.52018	-0.0844705
2.53034	-0.0850981
2.54054	-0.0857318
2.55079	-0.0863714
2.56109	-0.0870171
2.57143	-0.0876689
2.58182	-0.0883269
2.59226	-0.0889913
2.60274	-0.0896619
2.61327	-0.090339
2.62385	-0.0910226
2.63448	-0.0917128
2.64516	-0.0924096
2.65589	-0.0931131
2.66667	-0.0938234
2.67749	-0.0945406
2.68837	-0.0952648
2.6993	-0.095996
2.71028	-0.0967343
2.72131	-0.0974799
2.73239	-0.0982327
2.74353	-0.0989929
2.75472	-0.0997605
2.76596	-0.100536
2.77725	-0.101319
2.7886	-0.102109
2.8	-0.102908
2.81146	-0.103714
2.82297	-0.104528
2.83453	-0.105351
2.84615	-0.106181
2.85783	-0.10702
2.86957	-0.107868
2.88136	-0.108723
2.8932	-0.109588
2.90511	-0.110461
2.91707	-0.111343
2.9291	-0.112234
2.94118	-0.113134
2.95332	-0.114043
2.96552	-0.114961
2.97778	-0.115889
2.9901	-0.116826
3.00248	-0.117773
3.01493	-0.11873
3.02743	-0.119696
3.04	-0.120672
3.05263	-0.121659
3.06533	-0.122656
3.07809	-0.123663
3.09091	-0.12468
3.1038	-0.125708
3.11675	-0.126747
3.12977	-0.127797
3.14286	-0.128858
3.15601	-0.12993
3.16923	-0.131013
3.18252	-0.132108
3.19588	-0.133214
3.2093	-0.134333
3.2228	-0.135463
3.23636	-0.136605
3.25	-0.137759
3.26371	-0.138926
3.27749	-0.140105
3.29134	-0.141297
3.30526	-0.142502
3.31926	-0.14372
3.33333	-0.144951
3.34748	-0.146196
3.3617	-0.147454
3.376	-0.148726
3.39037	-0.150012
3.40483	-0.151312
3.41935	-0.152627
3.43396	-0.153956
3.44865	-0.155299
3.46341	-0.156658
3.47826	-0.158032
3.49319	-0.159421
3.5082	-0.160826
3.52329	-0.162246
3.53846	-0.163682
3.55372	-0.165135
3.56906	-0.166604
3.58449	-0.16809
3.6	-0.169593
3.6156	-0.171112
3.63128	-0.17265
3.64706	-0.174204
3.66292	-0.175777
3.67887	-0.177368
3.69492	-0.178977
3.71105	-0.180605
3.72727	-0.182252
3.74359	-0.183918
3.76	-0.185604
3.7765	-0.187309
3.7931	-0.189035
3.8098	-0.190781
3.82659	-0.192547
3.84348	-0.194334
3.86047	-0.196143
3.87755	-0.197973
3.89474	-0.199826
3.91202	-0.2017
3.92941	-0.203597
3.9469	-0.205517
3.9645	-0.20746
3.9822	-0.209427
4	-0.211418
4.01791	-0.213433
4.03593	-0.215473
4.05405	-0.217538
4.07229	-0.219628
4.09063	-0.221744
4.10909	-0.223887
4.12766	-0.226056
4.14634	-0.228253
4.16514	-0.230476
4.18405	-0.232728
4.20308	-0.235009
4.22222	-0.237318
4.24149	-0.239656
4.26087	-0.242025
4.28037	-0.244423
4.3	-0.246852
4.31975	-0.249313
4.33962	-0.251805
4.35962	-0.25433
4.37975	-0.256887
4.4	-0.259478
4.42038	-0.262103
4.44089	-0.264762
4.46154	-0.267456
4.48232	-0.270186
4.50323	-0.272952
4.52427	-0.275755
4.54545	-0.278595
4.56678	-0.281473
4.58824	-0.28439
4.60984	-0.287347
4.63158	-0.290344
4.65347	-0.293381
4.6755	-0.29646
4.69767	-0.299581
4.72	-0.302745
4.74247	-0.305952
4.7651	-0.309204
4.78788	-0.312501
4.81081	-0.315845
4.8339	-0.319235
4.85714	-0.322673
4.88055	-0.326159
4.90411	-0.329695
4.92784	-0.333281
4.95172	-0.336918
4.97578	-0.340608
5	-0.34435
5.02439	-0.348147
5.04895	-0.351999
5.07368	-0.355907
5.09859	-0.359872
5.12367	-0.363895
5.14894	-0.367978
5.17438	-0.372121
5.2	-0.376326
5.22581	-0.380594
5.2518	-0.384925
5.27798	-0.389322
5.30435	-0.393786
5.33091	-0.398317
5.35766	-0.402917
5.38462	-0.407588
5.41176	-0.41233
5.43911	-0.417146
5.46667	-0.422037
5.49442	-0.427004
5.52239	-0.432048
5.55056	-0.437172
5.57895	-0.442377
5.60755	-0.447665
5.63636	-0.453037
5.6654	-0.458495
5.69466	-0.464041
5.72414	-0.469677
5.75385	-0.475404
5.78378	-0.481224
5.81395	-0.48714
5.84436	-0.493154
5.875	-0.499267
5.90588	-0.505482
5.93701	-0.511801
5.96838	-0.518226
6	-0.524759
6.03187	-0.531403
6.064	-0.538161
6.09639	-0.545035
6.12903	-0.552027
6.16194	-0.55914
6.19512	-0.566377
6.22857	-0.57374
6.2623	-0.581233
6.2963	-0.588859
6.33058	-0.59662
6.36515	-0.60452
6.4	-0.612562
6.43515	-0.620749
6.47059	-0.629085
6.50633	-0.637573
6.54237	-0.646217
6.57872	-0.655021
6.61538	-0.663988
6.65236	-0.673123
6.68966	-0.68243
6.72727	-0.691912
6.76522	-0.701575
6.80349	-0.711423
6.84211	-0.72146
6.88106	-0.731691
6.92035	-0.742121
6.96	-0.752756
7	-0.7636
7.04036	-0.774659
7.08108	-0.785939
7.12217	-0.797445
7.16364	-0.809184
7.20548	-0.821161
7.24771	-0.833383
7.29032	-0.845857
7.33333	-0.85859
7.37674	-0.871589
7.42056	-0.88486
7.46479	-0.898412
7.50943	-0.912253
7.5545	-0.92639
7.6	-0.940832
7.64593	-0.955589
7.69231	-0.970668
7.73913	-0.98608
7.78641	-1.00183
7.83415	-1.01794
7.88235	-1.03441
7.93103	-1.05125
7.9802	-1.06848
8.02985	-1.0861
8.08	-1.10414
8.13065	-1.12259
8.18182	-1.14148
8.2335	-1.16082
8.28571	-1.18062
8.33846	-1.2009
8.39175	-1.22167
8.4456	-1.24296
8.5	-1.26476
8.55497	-1.28712
8.61053	-1.31003
8.66667	-1.33353
8.7234	-1.35762
8.78075	-1.38234
8.83871	-1.4077
8.8973	-1.43373
8.95652	-1.46044
9.01639	-1.48787
9.07692	-1.51605
9.13812	-1.54498
9.2	-1.57472
9.26257	-1.60528
9.32584	-1.63669
9.38983	-1.669
9.45455	-1.70222
9.52	-1.73641
9.58621	-1.77159
9.65318	-1.80781
9.72093	-1.84511
9.78947	-1.88354
9.85882	-1.92313
9.92899	-1.96393
10	-2.00601
10.071	-2.04889
10.1412	-2.09207
10.2105	-2.13556
10.2791	-2.17934
10.3468	-2.22342
10.4138	-2.26779
10.48	-2.31245
10.5455	-2.3574
10.6102	-2.40264
10.6742	-2.44816
10.7374	-2.49396
10.8	-2.54005
10.8619	-2.58642
10.9231	-2.63306
10.9836	-2.67998
11.0435	-2.72718
11.1027	-2.77465
11.1613	-2.82239
11.2193	-2.87039
11.2766	-2.91867
11.3333	-2.96722
11.3895	-3.01602
11.445	-3.0651
11.5	-3.11443
11.5544	-3.16403
11.6082	-3.21389
11.6615	-3.26401
11.7143	-3.31438
11.7665	-3.36501
11.8182	-3.4159
11.8693	-3.46704
11.92	-3.51844
11.9701	-3.57009
12.0198	-3.62199
12.069	-3.67415
12.1176	-3.72655
12.1659	-3.7792
12.2136	-3.8321
12.2609	-3.88525
12.3077	-3.93865
12.3541	-3.99229
12.4	-4.04618
12.4455	-4.10031
12.4906	-4.15469
12.5352	-4.20931
12.5794	-4.26417
12.6233	-4.31928
12.6667	-4.37463
12.7097	-4.43022
12.7523	-4.48605
12.7945	-4.54212
12.8364	-4.59844
12.8778	-4.65499
12.9189	-4.71178
12.9596	-4.76881
13	-4.82608
13.04	-4.88359
13.0796	-4.94134
13.1189	-4.99932
13.1579	-5.05754
13.1965	-5.116
13.2348	-5.1747
13.2727	-5.23363
13.3103	-5.2928
13.3476	-5.3522
13.3846	-5.41185
13.4213	-5.47172
13.4576	-5.53184
13.4937	-5.59219
13.5294	-5.65277
13.5649	-5.71359
13.6	-5.77465
13.6349	-5.83594
13.6694	-5.89747
13.7037	-5.95924
13.7377	-6.02124
13.7714	-6.08347
13.8049	-6.14594
13.8381	-6.20865
13.871	-6.27159
13.9036	-6.33477
13.936	-6.39818
13.9681	-6.46183
14	-6.52572
14.0316	-6.58984
14.063	-6.6542
14.0941	-6.7188
14.125	-6.78363
14.1556	-6.8487
14.186	-6.91401
14.2162	-6.97955
14.2462	-7.04533
14.2759	-7.11135
14.3053	-7.17761
14.3346	-7.24411
14.3636	-7.31084
14.3925	-7.37782
14.4211	-7.44503
14.4494	-7.51248
14.4776	-7.58017
14.5056	-7.64811
14.5333	-7.71628
14.5609	-7.78469
14.5882	-7.85335
14.6154	-7.92225
14.6423	-7.99138
14.6691	-8.06077
14.6957	-8.13039
14.722	-8.20026
14.7482	-8.27037
14.7742	-8.34072
14.8	-8.41132
14.8256	-8.48217
14.8511	-8.55326
14.8763	-8.62459
14.9014	-8.69617
14.9263	-8.768
14.951	-8.84008
14.9756	-8.9124
15	-8.98498
15.0242	-9.0578
15.0483	-9.13087
15.0722	-9.20419
15.0959	-9.27777
15.1195	-9.35159
15.1429	-9.42567
15.1661	-9.49999
15.1892	-9.57458
15.2121	-9.64941
15.2349	-9.7245
15.2575	-9.79985
15.28	-9.87545
15.3023	-9.9513
15.3245	-10.0274
15.3465	-10.1038
15.3684	-10.1804
15.3902	-10.2573
15.4118	-10.3345
15.4332	-10.4119
15.4545	-10.4895
15.4757	-10.5675
15.4968	-10.6457
15.5177	-10.7241
15.5385	-10.8028
15.5591	-10.8818
15.5796	-10.9611
15.6	-11.0406
15.6203	-11.1204
15.6404	-11.2004
15.6604	-11.2808
15.6803	-11.3614
15.7	-11.4422
15.7196	-11.5234
15.7391	-11.6048
15.7585	-11.6864
15.7778	-11.7684
15.7969	-11.8506
15.816	-11.9331
15.8349	-12.0159
15.8537	-12.099
15.8723	-12.1823
15.8909	-12.2659
15.9094	-12.3498
15.9277	-12.434
15.9459	-12.5185
15.9641	-12.6032
15.9821	-12.6882
16	-12.7736
16.0178	-12.8592
16.0355	-12.945
16.0531	-13.0312
16.0706	-13.1177
16.088	-13.2044
16.1053	-13.2915
16.1224	-13.3788
16.1395	-13.4665
16.1565	-13.5544
16.1734	-13.6426
16.1902	-13.7311
16.2069	-13.8199
16.2235	-13.909
16.24	-13.9985
16.2564	-14.0882
16.2727	-14.1782
16.289	-14.2685
16.3051	-14.3591
16.3211	-14.4501
16.3371	-14.5413
16.3529	-14.6329
16.3687	-14.7247
16.3844	-14.8169
16.4	-14.9093
16.4155	-15.0021
16.4309	-15.0952
16.4463	-15.1887
16.4615	-15.2824
16.4767	-15.3764
16.4918	-15.4708
16.5068	-15.5655
16.5217	-15.6605
16.5366	-15.7558
16.5514	-15.8515
16.566	-15.9475
16.5806	-16.0438
16.5952	-16.1404
16.6096	-16.2374
16.624	-16.3347
16.6383	-16.4323
16.6525	-16.5303
16.6667	-16.6286
16.6807	-16.7272
16.6947	-16.8262
16.7087	-16.9255
16.7225	-17.0252
16.7363	-17.1252
16.75	-17.2255
16.7636	-17.3262
16.7772	-17.4272
16.7907	-17.5286
16.8041	-17.6304
16.8175	-17.7324
16.8308	-17.8349
16.844	-17.9377
16.8571	-18.0408
16.8702	-18.1443
16.8832	-18.2482
16.8962	-18.3524
16.9091	-18.457
16.9219	-18.5619
16.9347	-18.6672
16.9474	-18.7729
16.96	-18.8789
16.9726	-18.9854
16.9851	-19.0922
16.9975	-19.1993
17.0099	-19.3069
17.0222	-19.4148
17.0345	-19.5231
17.0467	-19.6317
17.0588	-19.7408
17.0709	-19.8502
17.0829	-19.9601
17.0949	-20.0703
17.1068	-20.1809
17.1186	-20.2919
17.1304	-20.4033
17.1422	-20.515
17.1538	-20.6272
17.1655	-20.7398
17.177	-20.8528
17.1885	-20.9662
17.2	-21.08
17.2114	-21.1941
17.2227	-21.3087
17.234	-21.4238
17.2453	-21.5392
17.2565	-21.655
17.2676	-21.7713
17.2787	-21.8879
17.2897	-22.005
17.3007	-22.1225
17.3116	-22.2405
17.3225	-22.3589
17.3333	-22.4776
17.3441	-22.5969
17.3548	-22.7165
17.3655	-22.8366
17.3761	-22.9571
17.3867	-23.0781
17.3973	-23.1995
17.4077	-23.3214
17.4182	-23.4437
17.4286	-23.5664
17.4389	-23.6896
17.4492	-23.8133
17.4595	-23.9374
17.4697	-24.0619
17.4798	-24.187
17.4899	-24.3125
17.5	-24.4384
17.51	-24.5648
17.52	-24.6917
17.5299	-24.8191
17.5398	-24.9469
17.5497	-25.0752
17.5595	-25.204
17.5692	-25.3333
17.5789	-25.463
17.5886	-25.5932
17.5983	-25.724
17.6078	-25.8552
17.6174	-25.9869
17.6269	-26.1191
17.6364	-26.2518
17.6458	-26.385
17.6552	-26.5187
17.6645	-26.653
17.6738	-26.7877
17.6831	-26.923
17.6923	-27.0587
17.7015	-27.195
17.7106	-27.3318
17.7197	-27.4691
17.7288	-27.607
17.7378	-27.7454
17.7468	-27.8843
17.7558	-28.0237
17.7647	-28.1637
17.7736	-28.3042
17.7824	-28.4453
17.7912	-28.5869
17.8	-28.7291
17.8087	-28.8718
17.8174	-29.0151
17.8261	-29.159
17.8347	-29.3034
17.8433	-29.4483
17.8519	-29.5939
17.8604	-29.74
17.8689	-29.8867
17.8773	-30.0339
17.8857	-30.1818
17.8941	-30.3302
17.9024	-30.4792
17.9108	-30.6289
17.919	-30.7791
17.9273	-30.9299
17.9355	-31.0813
17.9437	-31.2333
17.9518	-31.3859
17.9599	-31.5392
17.968	-31.693
17.976	-31.8475
17.9841	-32.0026
17.992	-32.1583
18	-32.3147
18.0079	-32.4717
18.0158	-32.6293
18.0237	-32.7876
18.0315	-32.9465
18.0393	-33.106
18.0471	-33.2662
18.0548	-33.4271
18.0625	-33.5887
18.0702	-33.7508
18.0778	-33.9137
18.0854	-34.0773
18.093	-34.2415
18.1006	-34.4064
18.1081	-34.572
18.1156	-34.7382
18.1231	-34.9052
18.1305	-35.0729
18.1379	-35.2412
18.1453	-35.4103
18.1527	-35.5801
18.16	-35.7506
18.1673	-35.9218
18.1746	-36.0937
18.1818	-36.2664
18.189	-36.4398
18.1962	-36.6139
18.2034	-36.7888
18.2105	-36.9644
18.2176	-37.1408
18.2247	-37.3179
18.2318	-37.4958
18.2388	-37.6745
18.2458	-37.8539
18.2528	-38.0341
18.2597	-38.2151
18.2667	-38.3969
18.2736	-38.5794
18.2804	-38.7628
18.2873	-38.9469
18.2941	-39.1319
18.3009	-39.3176
18.3077	-39.5042
18.3144	-39.6916
18.3212	-39.8798
18.3279	-40.0689
18.3345	-40.2588
18.3412	-40.4495
18.3478	-40.6411
18.3544	-40.8335
18.361	-41.0268
18.3676	-41.2209
18.3741	-41.416
18.3806	-41.6119
18.3871	-41.8086
18.3936	-42.0063
18.4	-42.2049
18.4064	-42.4043
18.4128	-42.6047
18.4192	-42.806
18.4255	-43.0081
18.4319	-43.2113
18.4382	-43.4153
18.4444	-43.6203
18.4507	-43.8262
18.4569	-44.0331
18.4632	-44.2409
18.4694	-44.4497
18.4755	-44.6594
18.4817	-44.8701
18.4878	-45.0819
18.4939	-45.2945
18.5	-45.5082
18.5061	-45.7229
18.5121	-45.9386
18.5181	-46.1553
18.5241	-46.3731
18.5301	-46.5918
18.5361	-46.8116
18.542	-47.0325
18.5479	-47.2544
18.5538	-47.4774
18.5597	-47.7014
18.5656	-47.9265
18.5714	-48.1527
18.5772	-48.3799
18.5831	-48.6083
18.5888	-48.8378
18.5946	-49.0683
18.6003	-49.3
18.6061	-49.5329
18.6118	-49.7668
18.6174	-50.002
18.6231	-50.2382
18.6288	-50.4756
18.6344	-50.7142
18.64	-50.954
18.6456	-51.195
18.6512	-51.4371
18.6567	-51.6805
18.6623	-51.9251
18.6678	-52.1709
18.6733	-52.4179
18.6787	-52.6662
18.6842	-52.9157
18.6897	-53.1665
18.6951	-53.4186
18.7005	-53.6719
18.7059	-53.9265
18.7113	-54.1825
18.7166	-54.4397
18.722	-54.6982
18.7273	-54.9581
18.7326	-55.2193
18.7379	-55.4819
18.7431	-55.7458
18.7484	-56.0111
18.7536	-56.2778
18.7588	-56.5458
18.764	-56.8153
18.7692	-57.0862
18.7744	-57.3585
18.7796	-57.6322
18.7847	-57.9074
18.7898	-58.184
18.7949	-58.4621
18.8	-58.7417
18.8051	-59.0228
18.8101	-59.3053
18.8152	-59.5894
18.8202	-59.8751
18.8252	-60.1622
18.8302	-60.4509
18.8352	-60.7412
18.8401	-61.0331
18.8451	-61.3265
18.85	-61.6216
18.8549	-61.9182
18.8598	-62.2165
18.8647	-62.5165
18.8696	-62.8181
18.8744	-63.1213
18.8793	-63.4263
18.8841	-63.7329
18.8889	-64.0413
18.8937	-64.3514
18.8985	-64.6632
18.9032	-64.9768
18.908	-65.2921
18.9127	-65.6092
18.9174	-65.9282
18.9221	-66.2489
18.9268	-66.5715
18.9315	-66.8959
18.9362	-67.2222
18.9408	-67.5504
18.9455	-67.8805
18.9501	-68.2124
18.9547	-68.5463
18.9593	-68.8822
18.9639	-69.22
18.9684	-69.5598
18.973	-69.9015
18.9775	-70.2453
18.982	-70.5911
18.9865	-70.939
18.991	-71.2889
18.9955	-71.641
19	-71.9951
19.0045	-72.3513
19.0089	-72.7097
19.0133	-73.0703
19.0178	-73.433
19.0222	-73.7979
19.0265	-74.1651
19.0309	-74.5344
19.0353	-74.9061
19.0396	-75.28
19.044	-75.6562
19.0483	-76.0348
19.0526	-76.4157
19.0569	-76.7989
19.0612	-77.1846
19.0655	-77.5726
19.0698	-77.9631
19.074	-78.3561
19.0783	-78.7515
19.0825	-79.1495
19.0867	-79.5499
19.0909	-79.9529
19.0951	-80.3585
19.0993	-80.7667
19.1034	-81.1775
19.1076	-81.5909
19.1117	-82.0071
19.1159	-82.4259
19.12	-82.8475
19.1241	-83.2718
19.1282	-83.6989
19.1323	-84.1288
19.1364	-84.5615
19.1404	-84.9971
19.1445	-85.4356
19.1485	-85.877
19.1525	-86.3214
19.1566	-86.7687
19.1606	-87.2191
19.1646	-87.6725
19.1685	-88.129
19.1725	-88.5885
19.1765	-89.0512
19.1804	-89.5171
19.1844	-89.9862
19.1883	-90.4585
19.1922	-90.934
19.1961	-91.4129
19.2	-91.8951
19.2039	-92.3807
19.2078	-92.8696
19.2116	-93.362
19.2155	-93.8579
19.2193	-94.3573
19.2231	-94.8603
19.227	-95.3668
19.2308	-95.877
19.2346	-96.3908
19.2384	-96.9083
19.2421	-97.4296
19.2459	-97.9546
19.2497	-98.4835
19.2534	-99.0163
19.2571	-99.5529
19.2609	-100.094
19.2646	-100.638
19.2683	-101.187
19.272	-101.74
19.2757	-102.296
19.2794	-102.857
19.283	-103.423
19.2867	-103.992
19.2903	-104.566
19.294	-105.144
19.2976	-105.727
19.3012	-106.314
19.3048	-106.906
19.3084	-107.502
19.312	-108.103
19.3156	-108.708
19.3191	-109.319
19.3227	-109.934
19.3263	-110.554
19.3298	-111.179
19.3333	-111.808
19.3369	-112.443
19.3404	-113.083
19.3439	-113.728
19.3474	-114.379
19.3509	-115.034
19.3543	-115.695
19.3578	-116.361
19.3613	-117.033
19.3647	-117.71
19.3681	-118.393
19.3716	-119.082
19.375	-119.776
19.3784	-120.476
19.3818	-121.182
19.3852	-121.894
19.3886	-122.612
19.392	-123.336
19.3953	-124.067
19.3987	-124.803
19.4021	-125.546
19.4054	-126.296
19.4087	-127.052
19.4121	-127.814
19.4154	-128.584
19.4187	-129.36
19.422	-130.143
19.4253	-130.932
19.4286	-131.729
19.4318	-132.533
19.4351	-133.345
19.4384	-134.163
19.4416	-134.99
19.4449	-135.823
19.4481	-136.665
19.4513	-137.514
19.4545	-138.371
19.4578	-139.236
19.461	-140.109
19.4642	-140.99
19.4673	-141.88
19.4705	-142.778
19.4737	-143.684
19.4768	-144.6
19.48	-145.524
19.4831	-146.457
19.4863	-147.399
19.4894	-148.35
19.4925	-149.311
19.4957	-150.281
19.4988	-151.26
19.5019	-152.25
19.505	-153.249
19.508	-154.259
19.5111	-155.278
19.5142	-156.308
19.5172	-157.349
19.5203	-158.4
19.5233	-159.462
19.5264	-160.535
19.5294	-161.619
19.5324	-162.715
19.5355	-163.822
19.5385	-164.941
19.5415	-166.071
19.5445	-167.214
19.5474	-168.369
19.5504	-169.537
19.5534	-170.717
19.5564	-171.911
19.5593	-173.117
19.5623	-174.337
19.5652	-175.57
19.5682	-176.817
19.5711	-178.078
19.574	-179.353
19.5769	-180.643
19.5798	-181.948
19.5827	-183.267
19.5856	-184.602
19.5885	-185.953
19.5914	-187.319
19.5943	-188.701
19.5971	-190.1
19.6	-191.515
19.6029	-192.947
19.6057	-194.397
19.6085	-195.864
19.6114	-197.349
19.6142	-198.852
19.617	-200.374
19.6198	-201.914
19.6226	-203.474
19.6254	-205.054
19.6282	-206.653
19.631	-208.273
19.6338	-209.914
19.6366	-211.576
19.6393	-213.26
19.6421	-214.965
19.6449	-216.693
19.6476	-218.444
19.6503	-220.218
19.6531	-222.016
19.6558	-223.839
19.6585	-225.686
19.6613	-227.558
19.664	-229.457
19.6667	-231.381
19.6694	-233.333
19.6721	-235.312
19.6747	-237.319
19.6774	-239.355
19.6801	-241.42
19.6828	-243.516
19.6854	-245.641
19.6881	-247.798
19.6907	-249.987
19.6934	-252.209
19.696	-254.464
19.6986	-256.753
19.7013	-259.077
19.7039	-261.437
19.7065	-263.834
19.7091	-266.268
19.7117	-268.74
19.7143	-271.252
19.7169	-273.804
19.7195	-276.396
19.722	-279.032
19.7246	-281.71
19.7272	-284.433
19.7297	-287.201
19.7323	-290.015
19.7348	-292.877
19.7374	-295.789
19.7399	-298.75
19.7424	-301.763
19.745	-304.829
19.7475	-307.949
19.75	-311.124
19.7525	-314.357
19.755	-317.649
19.7575	-321.001
19.76	-324.416
19.7625	-327.894
19.765	-331.438
19.7674	-335.049
19.7699	-338.73
19.7724	-342.482
19.7748	-346.308
19.7773	-350.209
19.7797	-354.189
19.7822	-358.249
19.7846	-362.392
19.787	-366.62
19.7895	-370.936
19.7919	-375.344
19.7943	-379.845
19.7967	-384.442
19.7991	-389.14
19.8015	-393.941
19.8039	-398.849
19.8063	-403.867
19.8087	-409
19.8111	-414.25
19.8134	-419.622
19.8158	-425.121
19.8182	-430.75
19.8205	-436.516
19.8229	-442.421
19.8252	-448.473
19.8276	-454.676
19.8299	-461.036
19.8323	-467.56
19.8346	-474.252
19.8369	-481.121
19.8392	-488.173
19.8415	-495.416
19.8439	-502.857
19.8462	-510.504
19.8485	-518.367
19.8507	-526.455
19.853	-534.778
19.8553	-543.345
19.8576	-552.167
19.8599	-561.258
19.8621	-570.628
19.8644	-580.29
19.8667	-590.26
19.8689	-600.551
19.8712	-611.18
19.8734	-622.162
19.8757	-633.518
19.8779	-645.264
19.8801	-657.423
19.8824	-670.016
19.8846	-683.067
19.8868	-696.602
19.889	-710.647
19.8912	-725.233
19.8934	-740.39
19.8956	-756.154
19.8978	-772.561
19.9	-789.652
19.9022	-807.47
19.9044	-826.063
19.9065	-845.483
19.9087	-865.785
19.9109	-887.031
19.913	-909.289
19.9152	-932.633
19.9174	-957.144
19.9195	-982.912
19.9216	-1010.04
19.9238	-1038.63
19.9259	-1068.81
19.9281	-1100.71
19.9302	-1134.49
19.9323	-1170.32
19.9344	-1208.38
19.9365	-1248.91
19.9387	-1292.13
19.9408	-1338.34
19.9429	-1387.84
19.945	-1441.01
19.947	-1498.28
19.9491	-1560.12
19.9512	-1627.12
19.9533	-1699.94
19.9554	-1779.39
19.9574	-1866.4
19.9595	-1962.11
19.9616	-2067.89
19.9636	-2185.43
19.9657	-2316.8
19.9677	-2464.59
19.9698	-2632.09
19.9718	-2823.51
19.9739	-3044.38
19.9759	-3302.07
19.9779	-3606.6
19.98	-3972.05
19.982	-4418.7
19.984	-4977.02
19.986	-5694.85
19.988	-6651.97
19.99	-7991.93
19.992	-10001.9
19.994	-13351.8
19.996	-20051.6
19.998	-40151
20	-inf
