0	0.877193
0.00598802	0.87194
0.011976	0.866688
0.0179641	0.861435
0.0239521	0.856182
0.0299401	0.85093
0.0359281	0.845677
0.0419162	0.840424
0.0479042	0.835172
0.0538922	0.829919
0.0598802	0.824666
0.0658683	0.819414
0.0718563	0.814161
0.0778443	0.808908
0.0838323	0.803656
0.0898204	0.798403
0.0958084	0.793151
0.101796	0.787898
0.107784	0.782645
0.113772	0.777393
0.11976	0.77214
0.125749	0.766887
0.131737	0.761635
0.137725	0.756382
0.143713	0.751129
0.149701	0.745877
0.155689	0.740624
0.161677	0.735371
0.167665	0.730119
0.173653	0.724866
0.179641	0.719613
0.185629	0.714361
0.191617	0.709108
0.197605	0.703855
0.203593	0.698603
0.209581	0.69335
0.215569	0.688097
0.221557	0.682845
0.227545	0.677592
0.233533	0.67234
0.239521	0.667087
0.245509	0.661834
0.251497	0.656582
0.257485	0.651329
0.263473	0.646076
0.269461	0.640824
0.275449	0.635571
0.281437	0.630318
0.287425	0.625066
0.293413	0.619813
0.299401	0.61456
0.305389	0.609308
0.311377	0.604055
0.317365	0.598802
0.323353	0.59355
0.329341	0.588297
0.335329	0.583044
0.341317	0.577792
0.347305	0.572539
0.353293	0.567286
0.359281	0.562034
0.365269	0.556781
0.371257	0.551529
0.377246	0.546276
0.383234	0.541023
0.389222	0.535771
0.39521	0.530518
0.401198	0.525265
0.407186	0.520013
0.413174	0.51476
0.419162	0.509507
0.42515	0.504255
0.431138	0.499002
0.437126	0.493749
0.443114	0.488497
0.449102	0.483244
0.45509	0.477991
0.461078	0.472739
0.467066	0.467486
0.473054	0.462233
0.479042	0.456981
0.48503	0.451728
0.491018	0.446475
0.497006	0.441223
0.502994	0.43597
0.508982	0.430718
0.51497	0.425465
0.520958	0.420212
0.526946	0.41496
0.532934	0.409707
0.538922	0.404454
0.54491	0.399202
0.550898	0.393949
0.556886	0.388696
0.562874	0.383444
0.568862	0.378191
0.57485	0.372938
0.580838	0.367686
0.586826	0.362433
0.592814	0.35718
0.598802	0.351928
0.60479	0.346675
0.610778	0.341422
0.616766	0.33617
0.622754	0.330917
0.628743	0.325664
0.634731	0.320412
0.640719	0.315159
0.646707	0.309907
0.652695	0.304654
0.658683	0.299401
0.664671	0.294149
0.670659	0.288896
0.676647	0.283643
0.682635	0.278391
0.688623	0.273138
0.694611	0.267885
0.700599	0.262633
0.706587	0.25738
0.712575	0.252127
0.718563	0.246875
0.724551	0.241622
0.730539	0.236369
0.736527	0.231117
0.742515	0.225864
0.748503	0.220611
0.754491	0.215359
0.760479	0.210106
0.766467	0.204853
0.772455	0.199601
0.778443	0.194348
0.784431	0.189095
0.790419	0.183843
0.796407	0.17859
0.802395	0.173338
0.808383	0.168085
0.814371	0.162832
0.820359	0.15758
0.826347	0.152327
0.832335	0.147074
0.838323	0.141822
0.844311	0.136569
0.850299	0.131316
0.856287	0.126064
0.862275	0.120811
0.868263	0.115558
0.874251	0.110306
0.88024	0.105053
0.886228	0.0998004
0.892216	0.0945477
0.898204	0.0892951
0.904192	0.0840424
0.91018	0.0787898
0.916168	0.0735371
0.922156	0.0682845
0.928144	0.0630318
0.934132	0.0577792
0.94012	0.0525265
0.946108	0.0472739
0.952096	0.0420212
0.958084	0.0367686
0.964072	0.0315159
0.97006	0.0262633
0.976048	0.0210106
0.982036	0.015758
0.988024	0.0105053
0.994012	0.00525265
1	0
1.00599	-0.00239521
1.01198	-0.00479042
1.01796	-0.00718563
1.02395	-0.00958084
1.02994	-0.011976
1.03593	-0.0143713
1.04192	-0.0167665
1.0479	-0.0191617
1.05389	-0.0215569
1.05988	-0.0239521
1.06587	-0.0263473
1.07186	-0.0287425
1.07784	-0.0311377
1.08383	-0.0335329
1.08982	-0.0359281
1.09581	-0.0383234
1.1018	-0.0407186
1.10778	-0.0431138
1.11377	-0.045509
1.11976	-0.0479042
1.12575	-0.0502994
1.13174	-0.0526946
1.13772	-0.0550898
1.14371	-0.057485
1.1497	-0.0598802
1.15569	-0.0622754
1.16168	-0.0646707
1.16766	-0.0670659
1.17365	-0.0694611
1.17964	-0.0718563
1.18563	-0.0742515
1.19162	-0.0766467
1.1976	-0.0790419
1.20359	-0.0814371
1.20958	-0.0838323
1.21557	-0.0862275
1.22156	-0.0886228
1.22754	-0.091018
1.23353	-0.0934132
1.23952	-0.0958084
1.24551	-0.0982036
1.2515	-0.100599
1.25749	-0.102994
1.26347	-0.105389
1.26946	-0.107784
1.27545	-0.11018
1.28144	-0.112575
1.28743	-0.11497
1.29341	-0.117365
1.2994	-0.11976
1.30539	-0.122156
1.31138	-0.124551
1.31737	-0.126946
1.32335	-0.129341
1.32934	-0.131737
1.33533	-0.134132
1.34132	-0.136527
1.34731	-0.138922
1.35329	-0.141317
1.35928	-0.143713
1.36527	-0.146108
1.37126	-0.148503
1.37725	-0.150898
1.38323	-0.153293
1.38922	-0.155689
1.39521	-0.158084
1.4012	-0.160479
1.40719	-0.162874
1.41317	-0.165269
1.41916	-0.167665
1.42515	-0.17006
1.43114	-0.172455
1.43713	-0.17485
1.44311	-0.177246
1.4491	-0.179641
1.45509	-0.182036
1.46108	-0.184431
1.46707	-0.186826
1.47305	-0.189222
1.47904	-0.191617
1.48503	-0.194012
1.49102	-0.196407
1.49701	-0.198802
1.50299	-0.201198
1.50898	-0.203593
1.51497	-0.205988
1.52096	-0.208383
1.52695	-0.210778
1.53293	-0.213174
1.53892	-0.215569
1.54491	-0.217964
1.5509	-0.220359
1.55689	-0.222754
1.56287	-0.22515
1.56886	-0.227545
1.57485	-0.22994
1.58084	-0.232335
1.58683	-0.234731
1.59281	-0.237126
1.5988	-0.239521
1.60479	-0.241916
1.61078	-0.244311
1.61677	-0.246707
1.62275	-0.249102
1.62874	-0.251497
1.63473	-0.253892
1.64072	-0.256287
1.64671	-0.258683
1.65269	-0.261078
1.65868	-0.263473
1.66467	-0.265868
1.67066	-0.268263
1.67665	-0.270659
1.68263	-0.273054
1.68862	-0.275449
1.69461	-0.277844
1.7006	-0.28024
1.70659	-0.282635
1.71257	-0.28503
1.71856	-0.287425
1.72455	-0.28982
1.73054	-0.292216
1.73653	-0.294611
1.74251	-0.297006
1.7485	-0.299401
1.75449	-0.301796
1.76048	-0.304192
1.76647	-0.306587
1.77246	-0.308982
1.77844	-0.311377
1.78443	-0.313772
1.79042	-0.316168
1.79641	-0.318563
1.8024	-0.320958
1.80838	-0.323353
1.81437	-0.325749
1.82036	-0.328144
1.82635	-0.330539
1.83234	-0.332934
1.83832	-0.335329
1.84431	-0.337725
1.8503	-0.34012
1.85629	-0.342515
1.86228	-0.34491
1.86826	-0.347305
1.87425	-0.349701
1.88024	-0.352096
1.88623	-0.354491
1.89222	-0.356886
1.8982	-0.359281
1.90419	-0.361677
1.91018	-0.364072
1.91617	-0.366467
1.92216	-0.368862
1.92814	-0.371257
1.93413	-0.373653
1.94012	-0.376048
1.94611	-0.378443
1.9521	-0.380838
1.95808	-0.383234
1.96407	-0.385629
1.97006	-0.388024
1.97605	-0.390419
1.98204	-0.392814
1.98802	-0.39521
1.99401	-0.397605
2	-0.4
2.00599	-0.402395
2.01198	-0.40479
2.01796	-0.407186
2.02395	-0.409581
2.02994	-0.411976
2.03593	-0.414371
2.04192	-0.416766
2.0479	-0.419162
2.05389	-0.421557
2.05988	-0.423952
2.06587	-0.426347
2.07186	-0.428743
2.07784	-0.431138
2.08383	-0.433533
2.08982	-0.435928
2.09581	-0.438323
2.1018	-0.440719
2.10778	-0.443114
2.11377	-0.445509
2.11976	-0.447904
2.12575	-0.450299
2.13174	-0.452695
2.13772	-0.45509
2.14371	-0.457485
2.1497	-0.45988
2.15569	-0.462275
2.16168	-0.464671
2.16766	-0.467066
2.17365	-0.469461
2.17964	-0.471856
2.18563	-0.474251
2.19162	-0.476647
2.1976	-0.479042
2.20359	-0.481437
2.20958	-0.483832
2.21557	-0.486228
2.22156	-0.488623
2.22754	-0.491018
2.23353	-0.493413
2.23952	-0.495808
2.24551	-0.498204
2.2515	-0.500599
2.25749	-0.502994
2.26347	-0.505389
2.26946	-0.507784
2.27545	-0.51018
2.28144	-0.512575
2.28743	-0.51497
2.29341	-0.517365
2.2994	-0.51976
2.30539	-0.522156
2.31138	-0.524551
2.31737	-0.526946
2.32335	-0.529341
2.32934	-0.531737
2.33533	-0.534132
2.34132	-0.536527
2.34731	-0.538922
2.35329	-0.541317
2.35928	-0.543713
2.36527	-0.546108
2.37126	-0.548503
2.37725	-0.550898
2.38323	-0.553293
2.38922	-0.555689
2.39521	-0.558084
2.4012	-0.560479
2.40719	-0.562874
2.41317	-0.565269
2.41916	-0.567665
2.42515	-0.57006
2.43114	-0.572455
2.43713	-0.57485
2.44311	-0.577246
2.4491	-0.579641
2.45509	-0.582036
2.46108	-0.584431
2.46707	-0.586826
2.47305	-0.589222
2.47904	-0.591617
2.48503	-0.594012
2.49102	-0.596407
2.49701	-0.598802
2.50299	-0.601198
2.50898	-0.603593
2.51497	-0.605988
2.52096	-0.608383
2.52695	-0.610778
2.53293	-0.613174
2.53892	-0.615569
2.54491	-0.617964
2.5509	-0.620359
2.55689	-0.622754
2.56287	-0.62515
2.56886	-0.627545
2.57485	-0.62994
2.58084	-0.632335
2.58683	-0.634731
2.59281	-0.637126
2.5988	-0.639521
2.60479	-0.641916
2.61078	-0.644311
2.61677	-0.646707
2.62275	-0.649102
2.62874	-0.651497
2.63473	-0.653892
2.64072	-0.656287
2.64671	-0.658683
2.65269	-0.661078
2.65868	-0.663473
2.66467	-0.665868
2.67066	-0.668263
2.67665	-0.670659
2.68263	-0.673054
2.68862	-0.675449
2.69461	-0.677844
2.7006	-0.68024
2.70659	-0.682635
2.71257	-0.68503
2.71856	-0.687425
2.72455	-0.68982
2.73054	-0.692216
2.73653	-0.694611
2.74251	-0.697006
2.7485	-0.699401
2.75449	-0.701796
2.76048	-0.704192
2.76647	-0.706587
2.77246	-0.708982
2.77844	-0.711377
2.78443	-0.713772
2.79042	-0.716168
2.79641	-0.718563
2.8024	-0.720958
2.80838	-0.723353
2.81437	-0.725749
2.82036	-0.728144
2.82635	-0.730539
2.83234	-0.732934
2.83832	-0.735329
2.84431	-0.737725
2.8503	-0.74012
2.85629	-0.742515
2.86228	-0.74491
2.86826	-0.747305
2.87425	-0.749701
2.88024	-0.752096
2.88623	-0.754491
2.89222	-0.756886
2.8982	-0.759281
2.90419	-0.761677
2.91018	-0.764072
2.91617	-0.766467
2.92216	-0.768862
2.92814	-0.771257
2.93413	-0.773653
2.94012	-0.776048
2.94611	-0.778443
2.9521	-0.780838
2.95808	-0.783234
2.96407	-0.785629
2.97006	-0.788024
2.97605	-0.790419
2.98204	-0.792814
2.98802	-0.79521
2.99401	-0.797605
3	-0.8
3.00599	-0.802395
3.01198	-0.80479
3.01796	-0.807186
3.02395	-0.809581
3.02994	-0.811976
3.03593	-0.814371
3.04192	-0.816766
3.0479	-0.819162
3.05389	-0.821557
3.05988	-0.823952
3.06587	-0.826347
3.07186	-0.828743
3.07784	-0.831138
3.08383	-0.833533
3.08982	-0.835928
3.09581	-0.838323
3.1018	-0.840719
3.10778	-0.843114
3.11377	-0.845509
3.11976	-0.847904
3.12575	-0.850299
3.13174	-0.852695
3.13772	-0.85509
3.14371	-0.857485
3.1497	-0.85988
3.15569	-0.862275
3.16168	-0.864671
3.16766	-0.867066
3.17365	-0.869461
3.17964	-0.871856
3.18563	-0.874251
3.19162	-0.876647
3.1976	-0.879042
3.20359	-0.881437
3.20958	-0.883832
3.21557	-0.886228
3.22156	-0.888623
3.22754	-0.891018
3.23353	-0.893413
3.23952	-0.895808
3.24551	-0.898204
3.2515	-0.900599
3.25749	-0.902994
3.26347	-0.905389
3.26946	-0.907784
3.27545	-0.91018
3.28144	-0.912575
3.28743	-0.91497
3.29341	-0.917365
3.2994	-0.91976
3.30539	-0.922156
3.31138	-0.924551
3.31737	-0.926946
3.32335	-0.929341
3.32934	-0.931737
3.33533	-0.934132
3.34132	-0.936527
3.34731	-0.938922
3.35329	-0.941317
3.35928	-0.943713
3.36527	-0.946108
3.37126	-0.948503
3.37725	-0.950898
3.38323	-0.953293
3.38922	-0.955689
3.39521	-0.958084
3.4012	-0.960479
3.40719	-0.962874
3.41317	-0.965269
3.41916	-0.967665
3.42515	-0.97006
3.43114	-0.972455
3.43713	-0.97485
3.44311	-0.977246
3.4491	-0.979641
3.45509	-0.982036
3.46108	-0.984431
3.46707	-0.986826
3.47305	-0.989222
3.47904	-0.991617
3.48503	-0.994012
3.49102	-0.996407
3.49701	-0.998802
3.50299	-1.0012
3.50898	-1.00359
3.51497	-1.00599
3.52096	-1.00838
3.52695	-1.01078
3.53293	-1.01317
3.53892	-1.01557
3.54491	-1.01796
3.5509	-1.02036
3.55689	-1.02275
3.56287	-1.02515
3.56886	-1.02754
3.57485	-1.02994
3.58084	-1.03234
3.58683	-1.03473
3.59281	-1.03713
3.5988	-1.03952
3.60479	-1.04192
3.61078	-1.04431
3.61677	-1.04671
3.62275	-1.0491
3.62874	-1.0515
3.63473	-1.05389
3.64072	-1.05629
3.64671	-1.05868
3.65269	-1.06108
3.65868	-1.06347
3.66467	-1.06587
3.67066	-1.06826
3.67665	-1.07066
3.68263	-1.07305
3.68862	-1.07545
3.69461	-1.07784
3.7006	-1.08024
3.70659	-1.08263
3.71257	-1.08503
3.71856	-1.08743
3.72455	-1.08982
3.73054	-1.09222
3.73653	-1.09461
3.74251	-1.09701
3.7485	-1.0994
3.75449	-1.1018
3.76048	-1.10419
3.76647	-1.10659
3.77246	-1.10898
3.77844	-1.11138
3.78443	-1.11377
3.79042	-1.11617
3.79641	-1.11856
3.8024	-1.12096
3.80838	-1.12335
3.81437	-1.12575
3.82036	-1.12814
3.82635	-1.13054
3.83234	-1.13293
3.83832	-1.13533
3.84431	-1.13772
3.8503	-1.14012
3.85629	-1.14251
3.86228	-1.14491
3.86826	-1.14731
3.87425	-1.1497
3.88024	-1.1521
3.88623	-1.15449
3.89222	-1.15689
3.8982	-1.15928
3.90419	-1.16168
3.91018	-1.16407
3.91617	-1.16647
3.92216	-1.16886
3.92814	-1.17126
3.93413	-1.17365
3.94012	-1.17605
3.94611	-1.17844
3.9521	-1.18084
3.95808	-1.18323
3.96407	-1.18563
3.97006	-1.18802
3.97605	-1.19042
3.98204	-1.19281
3.98802	-1.19521
3.99401	-1.1976
4	-1.2
4.00599	-1.2024
4.01198	-1.20479
4.01796	-1.20719
4.02395	-1.20958
4.02994	-1.21198
4.03593	-1.21437
4.04192	-1.21677
4.0479	-1.21916
4.05389	-1.22156
4.05988	-1.22395
4.06587	-1.22635
4.07186	-1.22874
4.07784	-1.23114
4.08383	-1.23353
4.08982	-1.23593
4.09581	-1.23832
4.1018	-1.24072
4.10778	-1.24311
4.11377	-1.24551
4.11976	-1.2479
4.12575	-1.2503
4.13174	-1.25269
4.13772	-1.25509
4.14371	-1.25749
4.1497	-1.25988
4.15569	-1.26228
4.16168	-1.26467
4.16766	-1.26707
4.17365	-1.26946
4.17964	-1.27186
4.18563	-1.27425
4.19162	-1.27665
4.1976	-1.27904
4.20359	-1.28144
4.20958	-1.28383
4.21557	-1.28623
4.22156	-1.28862
4.22754	-1.29102
4.23353	-1.29341
4.23952	-1.29581
4.24551	-1.2982
4.2515	-1.3006
4.25749	-1.30299
4.26347	-1.30539
4.26946	-1.30778
4.27545	-1.31018
4.28144	-1.31257
4.28743	-1.31497
4.29341	-1.31737
4.2994	-1.31976
4.30539	-1.32216
4.31138	-1.32455
4.31737	-1.32695
4.32335	-1.32934
4.32934	-1.33174
4.33533	-1.33413
4.34132	-1.33653
4.34731	-1.33892
4.35329	-1.34132
4.35928	-1.34371
4.36527	-1.34611
4.37126	-1.3485
4.37725	-1.3509
4.38323	-1.35329
4.38922	-1.35569
4.39521	-1.35808
4.4012	-1.36048
4.40719	-1.36287
4.41317	-1.36527
4.41916	-1.36766
4.42515	-1.37006
4.43114	-1.37246
4.43713	-1.37485
4.44311	-1.37725
4.4491	-1.37964
4.45509	-1.38204
4.46108	-1.38443
4.46707	-1.38683
4.47305	-1.38922
4.47904	-1.39162
4.48503	-1.39401
4.49102	-1.39641
4.49701	-1.3988
4.50299	-1.4012
4.50898	-1.40359
4.51497	-1.40599
4.52096	-1.40838
4.52695	-1.41078
4.53293	-1.41317
4.53892	-1.41557
4.54491	-1.41796
4.5509	-1.42036
4.55689	-1.42275
4.56287	-1.42515
4.56886	-1.42754
4.57485	-1.42994
4.58084	-1.43234
4.58683	-1.43473
4.59281	-1.43713
4.5988	-1.43952
4.60479	-1.44192
4.61078	-1.44431
4.61677	-1.44671
4.62275	-1.4491
4.62874	-1.4515
4.63473	-1.45389
4.64072	-1.45629
4.64671	-1.45868
4.65269	-1.46108
4.65868	-1.46347
4.66467	-1.46587
4.67066	-1.46826
4.67665	-1.47066
4.68263	-1.47305
4.68862	-1.47545
4.69461	-1.47784
4.7006	-1.48024
4.70659	-1.48263
4.71257	-1.48503
4.71856	-1.48743
4.72455	-1.48982
4.73054	-1.49222
4.73653	-1.49461
4.74251	-1.49701
4.7485	-1.4994
4.75449	-1.5018
4.76048	-1.50419
4.76647	-1.50659
4.77246	-1.50898
4.77844	-1.51138
4.78443	-1.51377
4.79042	-1.51617
4.79641	-1.51856
4.8024	-1.52096
4.80838	-1.52335
4.81437	-1.52575
4.82036	-1.52814
4.82635	-1.53054
4.83234	-1.53293
4.83832	-1.53533
4.84431	-1.53772
4.8503	-1.54012
4.85629	-1.54251
4.86228	-1.54491
4.86826	-1.54731
4.87425	-1.5497
4.88024	-1.5521
4.88623	-1.55449
4.89222	-1.55689
4.8982	-1.55928
4.90419	-1.56168
4.91018	-1.56407
4.91617	-1.56647
4.92216	-1.56886
4.92814	-1.57126
4.93413	-1.57365
4.94012	-1.57605
4.94611	-1.57844
4.9521	-1.58084
4.95808	-1.58323
4.96407	-1.58563
4.97006	-1.58802
4.97605	-1.59042
4.98204	-1.59281
4.98802	-1.59521
4.99401	-1.5976
5	-1.6
5.00599	-1.6024
5.01198	-1.60479
5.01796	-1.60719
5.02395	-1.60958
5.02994	-1.61198
5.03593	-1.61437
5.04192	-1.61677
5.0479	-1.61916
5.05389	-1.62156
5.05988	-1.62395
5.06587	-1.62635
5.07186	-1.62874
5.07784	-1.63114
5.08383	-1.63353
5.08982	-1.63593
5.09581	-1.63832
5.1018	-1.64072
5.10778	-1.64311
5.11377	-1.64551
5.11976	-1.6479
5.12575	-1.6503
5.13174	-1.65269
5.13772	-1.65509
5.14371	-1.65749
5.1497	-1.65988
5.15569	-1.66228
5.16168	-1.66467
5.16766	-1.66707
5.17365	-1.66946
5.17964	-1.67186
5.18563	-1.67425
5.19162	-1.67665
5.1976	-1.67904
5.20359	-1.68144
5.20958	-1.68383
5.21557	-1.68623
5.22156	-1.68862
5.22754	-1.69102
5.23353	-1.69341
5.23952	-1.69581
5.24551	-1.6982
5.2515	-1.7006
5.25749	-1.70299
5.26347	-1.70539
5.26946	-1.70778
5.27545	-1.71018
5.28144	-1.71257
5.28743	-1.71497
5.29341	-1.71737
5.2994	-1.71976
5.30539	-1.72216
5.31138	-1.72455
5.31737	-1.72695
5.32335	-1.72934
5.32934	-1.73174
5.33533	-1.73413
5.34132	-1.73653
5.34731	-1.73892
5.35329	-1.74132
5.35928	-1.74371
5.36527	-1.74611
5.37126	-1.7485
5.37725	-1.7509
5.38323	-1.75329
5.38922	-1.75569
5.39521	-1.75808
5.4012	-1.76048
5.40719	-1.76287
5.41317	-1.76527
5.41916	-1.76766
5.42515	-1.77006
5.43114	-1.77246
5.43713	-1.77485
5.44311	-1.77725
5.4491	-1.77964
5.45509	-1.78204
5.46108	-1.78443
5.46707	-1.78683
5.47305	-1.78922
5.47904	-1.79162
5.48503	-1.79401
5.49102	-1.79641
5.49701	-1.7988
5.50299	-1.8012
5.50898	-1.80359
5.51497	-1.80599
5.52096	-1.80838
5.52695	-1.81078
5.53293	-1.81317
5.53892	-1.81557
5.54491	-1.81796
5.5509	-1.82036
5.55689	-1.82275
5.56287	-1.82515
5.56886	-1.82754
5.57485	-1.82994
5.58084	-1.83234
5.58683	-1.83473
5.59281	-1.83713
5.5988	-1.83952
5.60479	-1.84192
5.61078	-1.84431
5.61677	-1.84671
5.62275	-1.8491
5.62874	-1.8515
5.63473	-1.85389
5.64072	-1.85629
5.64671	-1.85868
5.65269	-1.86108
5.65868	-1.86347
5.66467	-1.86587
5.67066	-1.86826
5.67665	-1.87066
5.68263	-1.87305
5.68862	-1.87545
5.69461	-1.87784
5.7006	-1.88024
5.70659	-1.88263
5.71257	-1.88503
5.71856	-1.88743
5.72455	-1.88982
5.73054	-1.89222
5.73653	-1.89461
5.74251	-1.89701
5.7485	-1.8994
5.75449	-1.9018
5.76048	-1.90419
5.76647	-1.90659
5.77246	-1.90898
5.77844	-1.91138
5.78443	-1.91377
5.79042	-1.91617
5.79641	-1.91856
5.8024	-1.92096
5.80838	-1.92335
5.81437	-1.92575
5.82036	-1.92814
5.82635	-1.93054
5.83234	-1.93293
5.83832	-1.93533
5.84431	-1.93772
5.8503	-1.94012
5.85629	-1.94251
5.86228	-1.94491
5.86826	-1.94731
5.87425	-1.9497
5.88024	-1.9521
5.88623	-1.95449
5.89222	-1.95689
5.8982	-1.95928
5.90419	-1.96168
5.91018	-1.96407
5.91617	-1.96647
5.92216	-1.96886
5.92814	-1.97126
5.93413	-1.97365
5.94012	-1.97605
5.94611	-1.97844
5.9521	-1.98084
5.95808	-1.98323
5.96407	-1.98563
5.97006	-1.98802
5.97605	-1.99042
5.98204	-1.99281
5.98802	-1.99521
5.99401	-1.9976
6	-2
6.00599	-2.0024
6.01198	-2.00479
6.01796	-2.00719
6.02395	-2.00958
6.02994	-2.01198
6.03593	-2.01437
6.04192	-2.01677
6.0479	-2.01916
6.05389	-2.02156
6.05988	-2.02395
6.06587	-2.02635
6.07186	-2.02874
6.07784	-2.03114
6.08383	-2.03353
6.08982	-2.03593
6.09581	-2.03832
6.1018	-2.04072
6.10778	-2.04311
6.11377	-2.04551
6.11976	-2.0479
6.12575	-2.0503
6.13174	-2.05269
6.13772	-2.05509
6.14371	-2.05749
6.1497	-2.05988
6.15569	-2.06228
6.16168	-2.06467
6.16766	-2.06707
6.17365	-2.06946
6.17964	-2.07186
6.18563	-2.07425
6.19162	-2.07665
6.1976	-2.07904
6.20359	-2.08144
6.20958	-2.08383
6.21557	-2.08623
6.22156	-2.08862
6.22754	-2.09102
6.23353	-2.09341
6.23952	-2.09581
6.24551	-2.0982
6.2515	-2.1006
6.25749	-2.10299
6.26347	-2.10539
6.26946	-2.10778
6.27545	-2.11018
6.28144	-2.11257
6.28743	-2.11497
6.29341	-2.11737
6.2994	-2.11976
6.30539	-2.12216
6.31138	-2.12455
6.31737	-2.12695
6.32335	-2.12934
6.32934	-2.13174
6.33533	-2.13413
6.34132	-2.13653
6.34731	-2.13892
6.35329	-2.14132
6.35928	-2.14371
6.36527	-2.14611
6.37126	-2.1485
6.37725	-2.1509
6.38323	-2.15329
6.38922	-2.15569
6.39521	-2.15808
6.4012	-2.16048
6.40719	-2.16287
6.41317	-2.16527
6.41916	-2.16766
6.42515	-2.17006
6.43114	-2.17246
6.43713	-2.17485
6.44311	-2.17725
6.4491	-2.17964
6.45509	-2.18204
6.46108	-2.18443
6.46707	-2.18683
6.47305	-2.18922
6.47904	-2.19162
6.48503	-2.19401
6.49102	-2.19641
6.49701	-2.1988
6.50299	-2.2012
6.50898	-2.20359
6.51497	-2.20599
6.52096	-2.20838
6.52695	-2.21078
6.53293	-2.21317
6.53892	-2.21557
6.54491	-2.21796
6.5509	-2.22036
6.55689	-2.22275
6.56287	-2.22515
6.56886	-2.22754
6.57485	-2.22994
6.58084	-2.23234
6.58683	-2.23473
6.59281	-2.23713
6.5988	-2.23952
6.60479	-2.24192
6.61078	-2.24431
6.61677	-2.24671
6.62275	-2.2491
6.62874	-2.2515
6.63473	-2.25389
6.64072	-2.25629
6.64671	-2.25868
6.65269	-2.26108
6.65868	-2.26347
6.66467	-2.26587
6.67066	-2.26826
6.67665	-2.27066
6.68263	-2.27305
6.68862	-2.27545
6.69461	-2.27784
6.7006	-2.28024
6.70659	-2.28263
6.71257	-2.28503
6.71856	-2.28743
6.72455	-2.28982
6.73054	-2.29222
6.73653	-2.29461
6.74251	-2.29701
6.7485	-2.2994
6.75449	-2.3018
6.76048	-2.30419
6.76647	-2.30659
6.77246	-2.30898
6.77844	-2.31138
6.78443	-2.31377
6.79042	-2.31617
6.79641	-2.31856
6.8024	-2.32096
6.80838	-2.32335
6.81437	-2.32575
6.82036	-2.32814
6.82635	-2.33054
6.83234	-2.33293
6.83832	-2.33533
6.84431	-2.33772
6.8503	-2.34012
6.85629	-2.34251
6.86228	-2.34491
6.86826	-2.34731
6.87425	-2.3497
6.88024	-2.3521
6.88623	-2.35449
6.89222	-2.35689
6.8982	-2.35928
6.90419	-2.36168
6.91018	-2.36407
6.91617	-2.36647
6.92216	-2.36886
6.92814	-2.37126
6.93413	-2.37365
6.94012	-2.37605
6.94611	-2.37844
6.9521	-2.38084
6.95808	-2.38323
6.96407	-2.38563
6.97006	-2.38802
6.97605	-2.39042
6.98204	-2.39281
6.98802	-2.39521
6.99401	-2.3976
7	-2.4
7.00599	-2.4024
7.01198	-2.40479
7.01796	-2.40719
7.02395	-2.40958
7.02994	-2.41198
7.03593	-2.41437
7.04192	-2.41677
7.0479	-2.41916
7.05389	-2.42156
7.05988	-2.42395
7.06587	-2.42635
7.07186	-2.42874
7.07784	-2.43114
7.08383	-2.43353
7.08982	-2.43593
7.09581	-2.43832
7.1018	-2.44072
7.10778	-2.44311
7.11377	-2.44551
7.11976	-2.4479
7.12575	-2.4503
7.13174	-2.45269
7.13772	-2.45509
7.14371	-2.45749
7.1497	-2.45988
7.15569	-2.46228
7.16168	-2.46467
7.16766	-2.46707
7.17365	-2.46946
7.17964	-2.47186
7.18563	-2.47425
7.19162	-2.47665
7.1976	-2.47904
7.20359	-2.48144
7.20958	-2.48383
7.21557	-2.48623
7.22156	-2.48862
7.22754	-2.49102
7.23353	-2.49341
7.23952	-2.49581
7.24551	-2.4982
7.2515	-2.5006
7.25749	-2.50299
7.26347	-2.50539
7.26946	-2.50778
7.27545	-2.51018
7.28144	-2.51257
7.28743	-2.51497
7.29341	-2.51737
7.2994	-2.51976
7.30539	-2.52216
7.31138	-2.52455
7.31737	-2.52695
7.32335	-2.52934
7.32934	-2.53174
7.33533	-2.53413
7.34132	-2.53653
7.34731	-2.53892
7.35329	-2.54132
7.35928	-2.54371
7.36527	-2.54611
7.37126	-2.5485
7.37725	-2.5509
7.38323	-2.55329
7.38922	-2.55569
7.39521	-2.55808
7.4012	-2.56048
7.40719	-2.56287
7.41317	-2.56527
7.41916	-2.56766
7.42515	-2.57006
7.43114	-2.57246
7.43713	-2.57485
7.44311	-2.57725
7.4491	-2.57964
7.45509	-2.58204
7.46108	-2.58443
7.46707	-2.58683
7.47305	-2.58922
7.47904	-2.59162
7.48503	-2.59401
7.49102	-2.59641
7.49701	-2.5988
7.50299	-2.6012
7.50898	-2.60359
7.51497	-2.60599
7.52096	-2.60838
7.52695	-2.61078
7.53293	-2.61317
7.53892	-2.61557
7.54491	-2.61796
7.5509	-2.62036
7.55689	-2.62275
7.56287	-2.62515
7.56886	-2.62754
7.57485	-2.62994
7.58084	-2.63234
7.58683	-2.63473
7.59281	-2.63713
7.5988	-2.63952
7.60479	-2.64192
7.61078	-2.64431
7.61677	-2.64671
7.62275	-2.6491
7.62874	-2.6515
7.63473	-2.65389
7.64072	-2.65629
7.64671	-2.65868
7.65269	-2.66108
7.65868	-2.66347
7.66467	-2.66587
7.67066	-2.66826
7.67665	-2.67066
7.68263	-2.67305
7.68862	-2.67545
7.69461	-2.67784
7.7006	-2.68024
7.70659	-2.68263
7.71257	-2.68503
7.71856	-2.68743
7.72455	-2.68982
7.73054	-2.69222
7.73653	-2.69461
7.74251	-2.69701
7.7485	-2.6994
7.75449	-2.7018
7.76048	-2.70419
7.76647	-2.70659
7.77246	-2.70898
7.77844	-2.71138
7.78443	-2.71377
7.79042	-2.71617
7.79641	-2.71856
7.8024	-2.72096
7.80838	-2.72335
7.81437	-2.72575
7.82036	-2.72814
7.82635	-2.73054
7.83234	-2.73293
7.83832	-2.73533
7.84431	-2.73772
7.8503	-2.74012
7.85629	-2.74251
7.86228	-2.74491
7.86826	-2.74731
7.87425	-2.7497
7.88024	-2.7521
7.88623	-2.75449
7.89222	-2.75689
7.8982	-2.75928
7.90419	-2.76168
7.91018	-2.76407
7.91617	-2.76647
7.92216	-2.76886
7.92814	-2.77126
7.93413	-2.77365
7.94012	-2.77605
7.94611	-2.77844
7.9521	-2.78084
7.95808	-2.78323
7.96407	-2.78563
7.97006	-2.78802
7.97605	-2.79042
7.98204	-2.79281
7.98802	-2.79521
7.99401	-2.7976
8	-2.8
8.00599	-2.8024
8.01198	-2.80479
8.01796	-2.80719
8.02395	-2.80958
8.02994	-2.81198
8.03593	-2.81437
8.04192	-2.81677
8.0479	-2.81916
8.05389	-2.82156
8.05988	-2.82395
8.06587	-2.82635
8.07186	-2.82874
8.07784	-2.83114
8.08383	-2.83353
8.08982	-2.83593
8.09581	-2.83832
8.1018	-2.84072
8.10778	-2.84311
8.11377	-2.84551
8.11976	-2.8479
8.12575	-2.8503
8.13174	-2.85269
8.13772	-2.85509
8.14371	-2.85749
8.1497	-2.85988
8.15569	-2.86228
8.16168	-2.86467
8.16766	-2.86707
8.17365	-2.86946
8.17964	-2.87186
8.18563	-2.87425
8.19162	-2.87665
8.1976	-2.87904
8.20359	-2.88144
8.20958	-2.88383
8.21557	-2.88623
8.22156	-2.88862
8.22754	-2.89102
8.23353	-2.89341
8.23952	-2.89581
8.24551	-2.8982
8.2515	-2.9006
8.25749	-2.90299
8.26347	-2.90539
8.26946	-2.90778
8.27545	-2.91018
8.28144	-2.91257
8.28743	-2.91497
8.29341	-2.91737
8.2994	-2.91976
8.30539	-2.92216
8.31138	-2.92455
8.31737	-2.92695
8.32335	-2.92934
8.32934	-2.93174
8.33533	-2.93413
8.34132	-2.93653
8.34731	-2.93892
8.35329	-2.94132
8.35928	-2.94371
8.36527	-2.94611
8.37126	-2.9485
8.37725	-2.9509
8.38323	-2.95329
8.38922	-2.95569
8.39521	-2.95808
8.4012	-2.96048
8.40719	-2.96287
8.41317	-2.96527
8.41916	-2.96766
8.42515	-2.97006
8.43114	-2.97246
8.43713	-2.97485
8.44311	-2.97725
8.4491	-2.97964
8.45509	-2.98204
8.46108	-2.98443
8.46707	-2.98683
8.47305	-2.98922
8.47904	-2.99162
8.48503	-2.99401
8.49102	-2.99641
8.49701	-2.9988
8.50299	-3.0012
8.50898	-3.00359
8.51497	-3.00599
8.52096	-3.00838
8.52695	-3.01078
8.53293	-3.01317
8.53892	-3.01557
8.54491	-3.01796
8.5509	-3.02036
8.55689	-3.02275
8.56287	-3.02515
8.56886	-3.02754
8.57485	-3.02994
8.58084	-3.03234
8.58683	-3.03473
8.59281	-3.03713
8.5988	-3.03952
8.60479	-3.04192
8.61078	-3.04431
8.61677	-3.04671
8.62275	-3.0491
8.62874	-3.0515
8.63473	-3.05389
8.64072	-3.05629
8.64671	-3.05868
8.65269	-3.06108
8.65868	-3.06347
8.66467	-3.06587
8.67066	-3.06826
8.67665	-3.07066
8.68263	-3.07305
8.68862	-3.07545
8.69461	-3.07784
8.7006	-3.08024
8.70659	-3.08263
8.71257	-3.08503
8.71856	-3.08743
8.72455	-3.08982
8.73054	-3.09222
8.73653	-3.09461
8.74251	-3.09701
8.7485	-3.0994
8.75449	-3.1018
8.76048	-3.10419
8.76647	-3.10659
8.77246	-3.10898
8.77844	-3.11138
8.78443	-3.11377
8.79042	-3.11617
8.79641	-3.11856
8.8024	-3.12096
8.80838	-3.12335
8.81437	-3.12575
8.82036	-3.12814
8.82635	-3.13054
8.83234	-3.13293
8.83832	-3.13533
8.84431	-3.13772
8.8503	-3.14012
8.85629	-3.14251
8.86228	-3.14491
8.86826	-3.14731
8.87425	-3.1497
8.88024	-3.1521
8.88623	-3.15449
8.89222	-3.15689
8.8982	-3.15928
8.90419	-3.16168
8.91018	-3.16407
8.91617	-3.16647
8.92216	-3.16886
8.92814	-3.17126
8.93413	-3.17365
8.94012	-3.17605
8.94611	-3.17844
8.9521	-3.18084
8.95808	-3.18323
8.96407	-3.18563
8.97006	-3.18802
8.97605	-3.19042
8.98204	-3.19281
8.98802	-3.19521
8.99401	-3.1976
9	-3.2
9.00599	-3.2024
9.01198	-3.20479
9.01796	-3.20719
9.02395	-3.20958
9.02994	-3.21198
9.03593	-3.21437
9.04192	-3.21677
9.0479	-3.21916
9.05389	-3.22156
9.05988	-3.22395
9.06587	-3.22635
9.07186	-3.22874
9.07784	-3.23114
9.08383	-3.23353
9.08982	-3.23593
9.09581	-3.23832
9.1018	-3.24072
9.10778	-3.24311
9.11377	-3.24551
9.11976	-3.2479
9.12575	-3.2503
9.13174	-3.25269
9.13772	-3.25509
9.14371	-3.25749
9.1497	-3.25988
9.15569	-3.26228
9.16168	-3.26467
9.16766	-3.26707
9.17365	-3.26946
9.17964	-3.27186
9.18563	-3.27425
9.19162	-3.27665
9.1976	-3.27904
9.20359	-3.28144
9.20958	-3.28383
9.21557	-3.28623
9.22156	-3.28862
9.22754	-3.29102
9.23353	-3.29341
9.23952	-3.29581
9.24551	-3.2982
9.2515	-3.3006
9.25749	-3.30299
9.26347	-3.30539
9.26946	-3.30778
9.27545	-3.31018
9.28144	-3.31257
9.28743	-3.31497
9.29341	-3.31737
9.2994	-3.31976
9.30539	-3.32216
9.31138	-3.32455
9.31737	-3.32695
9.32335	-3.32934
9.32934	-3.33174
9.33533	-3.33413
9.34132	-3.33653
9.34731	-3.33892
9.35329	-3.34132
9.35928	-3.34371
9.36527	-3.34611
9.37126	-3.3485
9.37725	-3.3509
9.38323	-3.35329
9.38922	-3.35569
9.39521	-3.35808
9.4012	-3.36048
9.40719	-3.36287
9.41317	-3.36527
9.41916	-3.36766
9.42515	-3.37006
9.43114	-3.37246
9.43713	-3.37485
9.44311	-3.37725
9.4491	-3.37964
9.45509	-3.38204
9.46108	-3.38443
9.46707	-3.38683
9.47305	-3.38922
9.47904	-3.39162
9.48503	-3.39401
9.49102	-3.39641
9.49701	-3.3988
9.50299	-3.4012
9.50898	-3.40359
9.51497	-3.40599
9.52096	-3.40838
9.52695	-3.41078
9.53293	-3.41317
9.53892	-3.41557
9.54491	-3.41796
9.5509	-3.42036
9.55689	-3.42275
9.56287	-3.42515
9.56886	-3.42754
9.57485	-3.42994
9.58084	-3.43234
9.58683	-3.43473
9.59281	-3.43713
9.5988	-3.43952
9.60479	-3.44192
9.61078	-3.44431
9.61677	-3.44671
9.62275	-3.4491
9.62874	-3.4515
9.63473	-3.45389
9.64072	-3.45629
9.64671	-3.45868
9.65269	-3.46108
9.65868	-3.46347
9.66467	-3.46587
9.67066	-3.46826
9.67665	-3.47066
9.68263	-3.47305
9.68862	-3.47545
9.69461	-3.47784
9.7006	-3.48024
9.70659	-3.48263
9.71257	-3.48503
9.71856	-3.48743
9.72455	-3.48982
9.73054	-3.49222
9.73653	-3.49461
9.74251	-3.49701
9.7485	-3.4994
9.75449	-3.5018
9.76048	-3.50419
9.76647	-3.50659
9.77246	-3.50898
9.77844	-3.51138
9.78443	-3.51377
9.79042	-3.51617
9.79641	-3.51856
9.8024	-3.52096
9.80838	-3.52335
9.81437	-3.52575
9.82036	-3.52814
9.82635	-3.53054
9.83234	-3.53293
9.83832	-3.53533
9.84431	-3.53772
9.8503	-3.54012
9.85629	-3.54251
9.86228	-3.54491
9.86826	-3.54731
9.87425	-3.5497
9.88024	-3.5521
9.88623	-3.55449
9.89222	-3.55689
9.8982	-3.55928
9.90419	-3.56168
9.91018	-3.56407
9.91617	-3.56647
9.92216	-3.56886
9.92814	-3.57126
9.93413	-3.57365
9.94012	-3.57605
9.94611	-3.57844
9.9521	-3.58084
9.95808	-3.58323
9.96407	-3.58563
9.97006	-3.58802
9.97605	-3.59042
9.98204	-3.59281
9.98802	-3.59521
9.99401	-3.5976
10	-3.6
10.006	-3.6024
10.012	-3.60479
10.018	-3.60719
10.024	-3.60958
10.0299	-3.61198
10.0359	-3.61437
10.0419	-3.61677
10.0479	-3.61916
10.0539	-3.62156
10.0599	-3.62395
10.0659	-3.62635
10.0719	-3.62874
10.0778	-3.63114
10.0838	-3.63353
10.0898	-3.63593
10.0958	-3.63832
10.1018	-3.64072
10.1078	-3.64311
10.1138	-3.64551
10.1198	-3.6479
10.1257	-3.6503
10.1317	-3.65269
10.1377	-3.65509
10.1437	-3.65749
10.1497	-3.65988
10.1557	-3.66228
10.1617	-3.66467
10.1677	-3.66707
10.1737	-3.66946
10.1796	-3.67186
10.1856	-3.67425
10.1916	-3.67665
10.1976	-3.67904
10.2036	-3.68144
10.2096	-3.68383
10.2156	-3.68623
10.2216	-3.68862
10.2275	-3.69102
10.2335	-3.69341
10.2395	-3.69581
10.2455	-3.6982
10.2515	-3.7006
10.2575	-3.70299
10.2635	-3.70539
10.2695	-3.70778
10.2754	-3.71018
10.2814	-3.71257
10.2874	-3.71497
10.2934	-3.71737
10.2994	-3.71976
10.3054	-3.72216
10.3114	-3.72455
10.3174	-3.72695
10.3234	-3.72934
10.3293	-3.73174
10.3353	-3.73413
10.3413	-3.73653
10.3473	-3.73892
10.3533	-3.74132
10.3593	-3.74371
10.3653	-3.74611
10.3713	-3.7485
10.3772	-3.7509
10.3832	-3.75329
10.3892	-3.75569
10.3952	-3.75808
10.4012	-3.76048
10.4072	-3.76287
10.4132	-3.76527
10.4192	-3.76766
10.4251	-3.77006
10.4311	-3.77246
10.4371	-3.77485
10.4431	-3.77725
10.4491	-3.77964
10.4551	-3.78204
10.4611	-3.78443
10.4671	-3.78683
10.4731	-3.78922
10.479	-3.79162
10.485	-3.79401
10.491	-3.79641
10.497	-3.7988
10.503	-3.8012
10.509	-3.80359
10.515	-3.80599
10.521	-3.80838
10.5269	-3.81078
10.5329	-3.81317
10.5389	-3.81557
10.5449	-3.81796
10.5509	-3.82036
10.5569	-3.82275
10.5629	-3.82515
10.5689	-3.82754
10.5749	-3.82994
10.5808	-3.83234
10.5868	-3.83473
10.5928	-3.83713
10.5988	-3.83952
10.6048	-3.84192
10.6108	-3.84431
10.6168	-3.84671
10.6228	-3.8491
10.6287	-3.8515
10.6347	-3.85389
10.6407	-3.85629
10.6467	-3.85868
10.6527	-3.86108
10.6587	-3.86347
10.6647	-3.86587
10.6707	-3.86826
10.6766	-3.87066
10.6826	-3.87305
10.6886	-3.87545
10.6946	-3.87784
10.7006	-3.88024
10.7066	-3.88263
10.7126	-3.88503
10.7186	-3.88743
10.7246	-3.88982
10.7305	-3.89222
10.7365	-3.89461
10.7425	-3.89701
10.7485	-3.8994
10.7545	-3.9018
10.7605	-3.90419
10.7665	-3.90659
10.7725	-3.90898
10.7784	-3.91138
10.7844	-3.91377
10.7904	-3.91617
10.7964	-3.91856
10.8024	-3.92096
10.8084	-3.92335
10.8144	-3.92575
10.8204	-3.92814
10.8263	-3.93054
10.8323	-3.93293
10.8383	-3.93533
10.8443	-3.93772
10.8503	-3.94012
10.8563	-3.94251
10.8623	-3.94491
10.8683	-3.94731
10.8743	-3.9497
10.8802	-3.9521
10.8862	-3.95449
10.8922	-3.95689
10.8982	-3.95928
10.9042	-3.96168
10.9102	-3.96407
10.9162	-3.96647
10.9222	-3.96886
10.9281	-3.97126
10.9341	-3.97365
10.9401	-3.97605
10.9461	-3.97844
10.9521	-3.98084
10.9581	-3.98323
10.9641	-3.98563
10.9701	-3.98802
10.976	-3.99042
10.982	-3.99281
10.988	-3.99521
10.994	-3.9976
11	-4
